Print["Matrix M for the differential equation for subgraphs, for the DE method"]
{{0, 0, 0, 0, 0, 0, 0, 0, 0, 0, 0, 0, 0}, {0, -(\[Epsilon]/s), 0, 0, 0, 0, 0, 
  0, 0, 0, 0, 0, 0}, {((7 - 4*t + s*(-1 + t)*(7 + 4*t*(-1 + z1) - 4*z1))*
    \[Epsilon])/(s*(1 + s*(-1 + t))), 0, 
  ((-2 + s*(8 + 4*t*(-2 + z1) - 7*z1))*\[Epsilon])/(2*s*(1 + s*(-1 + t))), 
  ((-2*(2 + 5*s*(-1 + t))*(-7 + 4*t) + s*(73 + 8*t*(-13 + 5*t))*z1)*
    \[Epsilon])/(2*s*(1 + s*(-1 + t))), 0, 0, 0, 0, 0, 0, 0, 0, 0}, 
 {\[Epsilon]/s, 0, -((z1*\[Epsilon])/(2 + 2*s*(-1 + t))), 
  ((2 + s*(-2 + t*(2 - 4*z1) + 7*z1))*\[Epsilon])/(2*s*(1 + s*(-1 + t))), 0, 
  0, 0, 0, 0, 0, 0, 0, 0}, 
 {((-3 + t*(-4 + s*(3 - 4*t*(-1 + z2))))*\[Epsilon])/(s*(-1 + s*t)), 0, 0, 0, 
  ((2 + 4*s*t*(-2 + z2) + 3*s*z2)*\[Epsilon])/(2*s*(-1 + s*t)), 
  (2*(3 + 4*t)*(-2 + 5*s*t)*\[Epsilon] - s*(9 + 8*t*(3 + 5*t))*z2*\[Epsilon])/
   (2*s*(-1 + s*t)), 0, 0, 0, 0, 0, 0, 0}, {\[Epsilon]/s, 0, 0, 0, 
  (z2*\[Epsilon])/(-2 + 2*s*t), -((2 + 3*s*z2 + s*t*(-2 + 4*z2))*\[Epsilon])/
   (2*s*(-1 + s*t)), 0, 0, 0, 0, 0, 0, 0}, {(t*z3*\[Epsilon])/(4 + 4*s*t), 
  (t*z3*\[Epsilon])/(1 + s*t), (s*t*z1*z3*\[Epsilon])/
   (8*(1 + s*(-1 + t))*(1 + s*t)), (t*(-6 + s*(6 - 7*z1 + t*(-6 + 4*z1)))*z3*
    \[Epsilon])/(8*(1 + s*(-1 + t))*(1 + s*t)), 0, 0, 
  ((-2 + 2*s*t*(-3 + z3) - s*z3)*\[Epsilon])/(2*s*(1 + s*t)), 
  ((4 - 4*t*(2 + s*(-2 + z3)) + 16*s*t^2*(-1 + z3) + s*z3)*\[Epsilon])/
   (2*s*(1 + s*t)), 0, 0, 0, 0, 0}, {0, 0, 0, 0, 0, 0, 
  -((z3*\[Epsilon])/(2 + 2*s*t)), ((2 + s*(-2*t*(-1 + z3) + z3))*\[Epsilon])/
   (2*s*(1 + s*t)), 0, 0, 0, 0, 0}, 
 {((-1 + t)*z4*\[Epsilon])/(-4 + 4*s*(-1 + t)), 
  ((-1 + t)*z4*\[Epsilon])/(-1 + s*(-1 + t)), 0, 0, 
  -(s*(-1 + t)*z2*z4*\[Epsilon])/(8*(-1 + s*(-1 + t))*(-1 + s*t)), 
  ((-1 + t)*(6 + 3*s*z2 + s*t*(-6 + 4*z2))*z4*\[Epsilon])/
   (8*(-1 + s*(-1 + t))*(-1 + s*t)), 0, 0, 
  ((2 + s*(6 + 2*t*(-3 + z4) - z4))*\[Epsilon])/(2*s*(-1 + s*(-1 + t))), 
  ((4 - 8*t + s*(8 - 4*t*(6 + 4*t*(-1 + z4) - 7*z4) - 13*z4))*\[Epsilon])/
   (2*s*(-1 + s*(-1 + t))), 0, 0, 0}, {0, 0, 0, 0, 0, 0, 0, 0, 
  (z4*\[Epsilon])/(-2 + 2*s*(-1 + t)), 
  ((-2 + s*(-2 - 2*t*(-1 + z4) + z4))*\[Epsilon])/(2*s*(-1 + s*(-1 + t))), 0, 
  0, 0}, {0, 0, 0, 0, (z2*\[Epsilon])/(8*t*(-1 + s*t)), 
  (3*z2*\[Epsilon] + 4*t*z2*\[Epsilon])/(8*t - 8*s*t^2), 0, 0, 0, 0, 0, 0, 
  0}, {0, 0, (z1*\[Epsilon])/(8*(1 + s*(-1 + t))*(-1 + t)), 
  ((-7 + 4*t)*z1*\[Epsilon])/(8*(1 + s*(-1 + t))*(-1 + t)), 0, 0, 0, 0, 0, 0, 
  0, 0, 0}, {0, 0, 0, (-3*z5*\[Epsilon])/(32*(-1 + s*(-1 + t)*t)), 0, 
  (-3*z5*\[Epsilon])/(32*(-1 + s*(-1 + t)*t)), 
  (s*t*z3*z5*\[Epsilon])/(8*(1 + s*t)*(-1 + s*(-1 + t)*t)), 
  (t*(-6 + 2*s*t*(-3 + z3) - s*z3)*z5*\[Epsilon])/
   (8*(1 + s*t)*(-1 + s*(-1 + t)*t)), (s*(-1 + t)*z4*z5*\[Epsilon])/
   (8*(-1 + s*(-1 + t))*(-1 + s*(-1 + t)*t)), 
  -((-1 + t)*(6 + s*(6 + 2*t*(-3 + z4) - z4))*z5*\[Epsilon])/
   (8*(-1 + s*(-1 + t))*(-1 + s*(-1 + t)*t)), 
  (t*z5*\[Epsilon])/(-4 + 4*s*(-1 + t)*t), 
  -(((-1 + t)*z5*\[Epsilon])/(-4 + 4*s*(-1 + t)*t)), 
  (\[Epsilon] - 2*s*(-1 + t)*t*\[Epsilon])/(s*(-1 + s*(-1 + t)*t))}}
