Print["Solution to non-planar elliptic vertex in terms of J-functions obtained with the help of direct integration technique"]
{j[vertexDE, 1, 1, 1, 1, 1, 1] -> 
  J[\[CapitalNu][{z[5]}, {-1, 0}], {w[{(-t + t^2)^(-1)}, {z[3]*z[5]}], 
      w[{-t^(-1)}, {z[3]}], w[{0}, {s}]}, s]/(8*s) - 
   J[\[CapitalNu][{z[5]}, {-1, 1}], {w[{-t^(-1)}, {z[3]*z[5]}], 
      w[{-t^(-1)}, {z[3]}], w[{0}, {s}]}, s]/(8*s) - 
   J[\[CapitalNu][{z[5]}, {-1, 1}], {w[{(-t + t^2)^(-1)}, {z[3]*z[5]}], 
      w[{-t^(-1)}, {z[1]*z[3]}], w[{(1 - t)^(-1)}, {z[1]}]}, s]/(8*s) + 
   J[\[CapitalNu][{z[5]}, {-1, 2}], {w[{-t^(-1)}, {z[3]*z[5]}], 
      w[{-t^(-1)}, {z[1]*z[3]}], w[{(1 - t)^(-1)}, {z[1]}]}, s]/(8*s) + 
   J[\[CapitalNu][{z[5]}, {0, -1}], {w[{(-t + t^2)^(-1)}, {z[4]*z[5]}], 
      w[{-(1 - t)^(-1)}, {z[4]}], w[{0}, {s}]}, s]/(8*s) - 
   J[\[CapitalNu][{z[5]}, {0, 0}], {w[{-(t - t^2)^(-1)}, {z[5]}], 
      w[{(1 - t)^(-1)}, {z[1]}], w[{(1 - t)^(-1)}, {z[1]}]}, s]/(8*s) - 
   J[\[CapitalNu][{z[5]}, {0, 0}], {w[{-(t - t^2)^(-1)}, {z[5]}], 
      w[{t^(-1)}, {z[2]}], w[{t^(-1)}, {z[2]}]}, s]/(8*s) - 
   J[\[CapitalNu][{z[5]}, {0, 0}], {w[{(-t + t^2)^(-1)}, {z[3]*z[5]}], 
      w[{(1 - t)^(-1)}, {z[1]*z[3]}], w[{(1 - t)^(-1)}, {z[1]}]}, s]/(8*s) - 
   J[\[CapitalNu][{z[5]}, {0, 0}], {w[{(-t + t^2)^(-1)}, {z[4]*z[5]}], 
      w[{t^(-1)}, {z[2]*z[4]}], w[{t^(-1)}, {z[2]}]}, s]/(8*s) + 
   J[\[CapitalNu][{z[5]}, {0, 1}], {w[{-t^(-1)}, {z[3]*z[5]}], 
      w[{(1 - t)^(-1)}, {z[1]*z[3]}], w[{(1 - t)^(-1)}, {z[1]}]}, s]/(8*s) - 
   J[\[CapitalNu][{z[5]}, {1, -1}], {w[{-(1 - t)^(-1)}, {z[4]*z[5]}], 
      w[{-(1 - t)^(-1)}, {z[4]}], w[{0}, {s}]}, s]/(8*s) - 
   J[\[CapitalNu][{z[5]}, {1, -1}], {w[{(-t + t^2)^(-1)}, {z[4]*z[5]}], 
      w[{-(1 - t)^(-1)}, {z[2]*z[4]}], w[{t^(-1)}, {z[2]}]}, s]/(8*s) + 
   J[\[CapitalNu][{z[5]}, {1, 0}], {w[{-(1 - t)^(-1)}, {z[4]*z[5]}], 
      w[{t^(-1)}, {z[2]*z[4]}], w[{t^(-1)}, {z[2]}]}, s]/(8*s) + 
   J[\[CapitalNu][{z[5]}, {2, -1}], {w[{-(1 - t)^(-1)}, {z[4]*z[5]}], 
      w[{-(1 - t)^(-1)}, {z[2]*z[4]}], w[{t^(-1)}, {z[2]}]}, s]/(8*s) - 
   ((I/8)*J[\[CapitalNu][{z[5]}, {0, -1}], 
      {w[{(-t + t^2)^(-1)}, {z[4]*z[5]}], w[{-(1 - t)^(-1)}, {z[4]}]}, s]*
     (Pi + I*Log[4]))/s + (J[\[CapitalNu][{z[5]}, {-1, 0}], 
      {w[{(-t + t^2)^(-1)}, {z[3]*z[5]}], w[{-t^(-1)}, {z[3]}]}, s]*
     ((-I)*Pi + Log[4]))/(8*s) - 
   (J[\[CapitalNu][{z[5]}, {-1, 1}], {w[{-t^(-1)}, {z[3]*z[5]}], 
       w[{-t^(-1)}, {z[3]}]}, s]*((-I)*Pi + Log[4]))/(8*s) - 
   (J[\[CapitalNu][{z[5]}, {1, -1}], {w[{-(1 - t)^(-1)}, {z[4]*z[5]}], 
       w[{-(1 - t)^(-1)}, {z[4]}]}, s]*((-I)*Pi + Log[4]))/(8*s) + 
   \[CurlyEpsilon]*(-J[\[CapitalNu][{z[5]}, {-1, 0}], 
        {w[{0}, {s}], w[{(-t + t^2)^(-1)}, {z[3]*z[5]}], 
         w[{-t^(-1)}, {z[3]}], w[{0}, {s}]}, s]/(8*s) - 
     J[\[CapitalNu][{z[5]}, {-1, 0}], {w[{-(t - t^2)^(-1)}, {s}], 
        w[{(-t + t^2)^(-1)}, {z[3]*z[5]}], w[{-t^(-1)}, {z[3]}], 
        w[{0}, {s}]}, s]/(4*s) + J[\[CapitalNu][{z[5]}, {-1, 0}], 
       {w[{(-t + t^2)^(-1)}, {s}], w[{(-t + t^2)^(-1)}, {z[3]*z[5]}], 
        w[{-t^(-1)}, {z[3]}], w[{0}, {s}]}, s]/(8*s) - 
     J[\[CapitalNu][{z[5]}, {-1, 0}], {w[{(-t + t^2)^(-1)}, {z[3]*z[5]}], 
        w[{0}, {s}], w[{-t^(-1)}, {z[3]}], w[{0}, {s}]}, s]/(8*s) - 
     J[\[CapitalNu][{z[5]}, {-1, 0}], {w[{(-t + t^2)^(-1)}, {z[3]*z[5]}], 
        w[{-t^(-1)}, {s}], w[{-t^(-1)}, {z[3]}], w[{0}, {s}]}, s]/(4*s) - 
     J[\[CapitalNu][{z[5]}, {-1, 0}], {w[{(-t + t^2)^(-1)}, {z[3]*z[5]}], 
        w[{-t^(-1)}, {z[3]}], w[{0}, {s}], w[{0}, {s}]}, s]/(8*s) - 
     (3*J[\[CapitalNu][{z[5]}, {-1, 0}], {w[{(-t + t^2)^(-1)}, {z[3]*z[5]}], 
         w[{-t^(-1)}, {z[3]}], w[{(1 - t)^(-1)}, {z[1]}], 
         w[{(1 - t)^(-1)}, {z[1]}]}, s])/(8*s) + 
     J[\[CapitalNu][{z[5]}, {-1, 1}], {w[{0}, {s}], 
        w[{-t^(-1)}, {z[3]*z[5]}], w[{-t^(-1)}, {z[3]}], w[{0}, {s}]}, s]/
      (8*s) + J[\[CapitalNu][{z[5]}, {-1, 1}], {w[{0}, {s}], 
        w[{(-t + t^2)^(-1)}, {z[3]*z[5]}], w[{-t^(-1)}, {z[1]*z[3]}], 
        w[{(1 - t)^(-1)}, {z[1]}]}, s]/(8*s) + 
     J[\[CapitalNu][{z[5]}, {-1, 1}], {w[{-t^(-1)}, {z[3]*z[5]}], 
        w[{0}, {s}], w[{-t^(-1)}, {z[3]}], w[{0}, {s}]}, s]/(8*s) + 
     J[\[CapitalNu][{z[5]}, {-1, 1}], {w[{-t^(-1)}, {z[3]*z[5]}], 
        w[{-t^(-1)}, {s}], w[{-t^(-1)}, {z[3]}], w[{0}, {s}]}, s]/(4*s) + 
     J[\[CapitalNu][{z[5]}, {-1, 1}], {w[{-t^(-1)}, {z[3]*z[5]}], 
        w[{-t^(-1)}, {z[3]}], w[{0}, {s}], w[{0}, {s}]}, s]/(8*s) + 
     (3*J[\[CapitalNu][{z[5]}, {-1, 1}], {w[{-t^(-1)}, {z[3]*z[5]}], 
         w[{-t^(-1)}, {z[3]}], w[{(1 - t)^(-1)}, {z[1]}], 
         w[{(1 - t)^(-1)}, {z[1]}]}, s])/(8*s) + 
     J[\[CapitalNu][{z[5]}, {-1, 1}], {w[{-(t - t^2)^(-1)}, {s}], 
        w[{-t^(-1)}, {z[3]*z[5]}], w[{-t^(-1)}, {z[3]}], w[{0}, {s}]}, s]/
      (4*s) + J[\[CapitalNu][{z[5]}, {-1, 1}], {w[{-(t - t^2)^(-1)}, {s}], 
        w[{(-t + t^2)^(-1)}, {z[3]*z[5]}], w[{-t^(-1)}, {z[1]*z[3]}], 
        w[{(1 - t)^(-1)}, {z[1]}]}, s]/(4*s) - 
     J[\[CapitalNu][{z[5]}, {-1, 1}], {w[{(-t + t^2)^(-1)}, {s}], 
        w[{-t^(-1)}, {z[3]*z[5]}], w[{-t^(-1)}, {z[3]}], w[{0}, {s}]}, s]/
      (8*s) - J[\[CapitalNu][{z[5]}, {-1, 1}], {w[{(-t + t^2)^(-1)}, {s}], 
        w[{(-t + t^2)^(-1)}, {z[3]*z[5]}], w[{-t^(-1)}, {z[1]*z[3]}], 
        w[{(1 - t)^(-1)}, {z[1]}]}, s]/(8*s) + 
     J[\[CapitalNu][{z[5]}, {-1, 1}], {w[{(-t + t^2)^(-1)}, {z[3]*z[5]}], 
        w[{0}, {s}], w[{-t^(-1)}, {z[1]*z[3]}], w[{(1 - t)^(-1)}, {z[1]}]}, 
       s]/(8*s) + J[\[CapitalNu][{z[5]}, {-1, 1}], 
       {w[{(-t + t^2)^(-1)}, {z[3]*z[5]}], w[{-t^(-1)}, {s}], 
        w[{-t^(-1)}, {z[1]*z[3]}], w[{(1 - t)^(-1)}, {z[1]}]}, s]/(4*s) + 
     J[\[CapitalNu][{z[5]}, {-1, 1}], {w[{(-t + t^2)^(-1)}, {z[3]*z[5]}], 
        w[{-t^(-1)}, {z[1]*z[3]}], w[{0}, {s}], w[{(1 - t)^(-1)}, {z[1]}]}, 
       s]/(8*s) + (3*J[\[CapitalNu][{z[5]}, {-1, 1}], 
        {w[{(-t + t^2)^(-1)}, {z[3]*z[5]}], w[{-t^(-1)}, {z[1]*z[3]}], 
         w[{(1 - t)^(-1)}, {s}], w[{(1 - t)^(-1)}, {z[1]}]}, s])/(8*s) - 
     J[\[CapitalNu][{z[5]}, {-1, 2}], {w[{0}, {s}], 
        w[{-t^(-1)}, {z[3]*z[5]}], w[{-t^(-1)}, {z[1]*z[3]}], 
        w[{(1 - t)^(-1)}, {z[1]}]}, s]/(8*s) - 
     J[\[CapitalNu][{z[5]}, {-1, 2}], {w[{-t^(-1)}, {z[3]*z[5]}], 
        w[{0}, {s}], w[{-t^(-1)}, {z[1]*z[3]}], w[{(1 - t)^(-1)}, {z[1]}]}, 
       s]/(8*s) - J[\[CapitalNu][{z[5]}, {-1, 2}], 
       {w[{-t^(-1)}, {z[3]*z[5]}], w[{-t^(-1)}, {s}], 
        w[{-t^(-1)}, {z[1]*z[3]}], w[{(1 - t)^(-1)}, {z[1]}]}, s]/(4*s) - 
     J[\[CapitalNu][{z[5]}, {-1, 2}], {w[{-t^(-1)}, {z[3]*z[5]}], 
        w[{-t^(-1)}, {z[1]*z[3]}], w[{0}, {s}], w[{(1 - t)^(-1)}, {z[1]}]}, 
       s]/(8*s) - (3*J[\[CapitalNu][{z[5]}, {-1, 2}], 
        {w[{-t^(-1)}, {z[3]*z[5]}], w[{-t^(-1)}, {z[1]*z[3]}], 
         w[{(1 - t)^(-1)}, {s}], w[{(1 - t)^(-1)}, {z[1]}]}, s])/(8*s) - 
     J[\[CapitalNu][{z[5]}, {-1, 2}], {w[{-(t - t^2)^(-1)}, {s}], 
        w[{-t^(-1)}, {z[3]*z[5]}], w[{-t^(-1)}, {z[1]*z[3]}], 
        w[{(1 - t)^(-1)}, {z[1]}]}, s]/(4*s) + 
     J[\[CapitalNu][{z[5]}, {-1, 2}], {w[{(-t + t^2)^(-1)}, {s}], 
        w[{-t^(-1)}, {z[3]*z[5]}], w[{-t^(-1)}, {z[1]*z[3]}], 
        w[{(1 - t)^(-1)}, {z[1]}]}, s]/(8*s) - 
     J[\[CapitalNu][{z[5]}, {0, -1}], {w[{0}, {s}], w[{(-t + t^2)^(-1)}, 
         {z[4]*z[5]}], w[{-(1 - t)^(-1)}, {z[4]}], w[{0}, {s}]}, s]/(8*s) - 
     J[\[CapitalNu][{z[5]}, {0, -1}], {w[{-(t - t^2)^(-1)}, {s}], 
        w[{(-t + t^2)^(-1)}, {z[4]*z[5]}], w[{-(1 - t)^(-1)}, {z[4]}], 
        w[{0}, {s}]}, s]/(4*s) + J[\[CapitalNu][{z[5]}, {0, -1}], 
       {w[{(-t + t^2)^(-1)}, {s}], w[{(-t + t^2)^(-1)}, {z[4]*z[5]}], 
        w[{-(1 - t)^(-1)}, {z[4]}], w[{0}, {s}]}, s]/(8*s) - 
     J[\[CapitalNu][{z[5]}, {0, -1}], {w[{(-t + t^2)^(-1)}, {z[4]*z[5]}], 
        w[{0}, {s}], w[{-(1 - t)^(-1)}, {z[4]}], w[{0}, {s}]}, s]/(8*s) - 
     J[\[CapitalNu][{z[5]}, {0, -1}], {w[{(-t + t^2)^(-1)}, {z[4]*z[5]}], 
        w[{-(1 - t)^(-1)}, {s}], w[{-(1 - t)^(-1)}, {z[4]}], w[{0}, {s}]}, s]/
      (4*s) - J[\[CapitalNu][{z[5]}, {0, -1}], 
       {w[{(-t + t^2)^(-1)}, {z[4]*z[5]}], w[{-(1 - t)^(-1)}, {z[4]}], 
        w[{0}, {s}], w[{0}, {s}]}, s]/(8*s) - 
     (3*J[\[CapitalNu][{z[5]}, {0, -1}], {w[{(-t + t^2)^(-1)}, {z[4]*z[5]}], 
         w[{-(1 - t)^(-1)}, {z[4]}], w[{t^(-1)}, {z[2]}], 
         w[{t^(-1)}, {z[2]}]}, s])/(8*s) + 
     J[\[CapitalNu][{z[5]}, {0, 0}], {w[{0}, {s}], w[{-(t - t^2)^(-1)}, 
         {z[5]}], w[{(1 - t)^(-1)}, {z[1]}], w[{(1 - t)^(-1)}, {z[1]}]}, s]/
      (8*s) + J[\[CapitalNu][{z[5]}, {0, 0}], {w[{0}, {s}], 
        w[{-(t - t^2)^(-1)}, {z[5]}], w[{t^(-1)}, {z[2]}], 
        w[{t^(-1)}, {z[2]}]}, s]/(8*s) + J[\[CapitalNu][{z[5]}, {0, 0}], 
       {w[{0}, {s}], w[{(-t + t^2)^(-1)}, {z[3]*z[5]}], 
        w[{(1 - t)^(-1)}, {z[1]*z[3]}], w[{(1 - t)^(-1)}, {z[1]}]}, s]/
      (8*s) + J[\[CapitalNu][{z[5]}, {0, 0}], {w[{0}, {s}], 
        w[{(-t + t^2)^(-1)}, {z[4]*z[5]}], w[{t^(-1)}, {z[2]*z[4]}], 
        w[{t^(-1)}, {z[2]}]}, s]/(8*s) + J[\[CapitalNu][{z[5]}, {0, 0}], 
       {w[{-(t - t^2)^(-1)}, {s}], w[{-(t - t^2)^(-1)}, {z[5]}], 
        w[{(1 - t)^(-1)}, {z[1]}], w[{(1 - t)^(-1)}, {z[1]}]}, s]/(4*s) + 
     J[\[CapitalNu][{z[5]}, {0, 0}], {w[{-(t - t^2)^(-1)}, {s}], 
        w[{-(t - t^2)^(-1)}, {z[5]}], w[{t^(-1)}, {z[2]}], 
        w[{t^(-1)}, {z[2]}]}, s]/(4*s) + J[\[CapitalNu][{z[5]}, {0, 0}], 
       {w[{-(t - t^2)^(-1)}, {s}], w[{(-t + t^2)^(-1)}, {z[3]*z[5]}], 
        w[{(1 - t)^(-1)}, {z[1]*z[3]}], w[{(1 - t)^(-1)}, {z[1]}]}, s]/
      (4*s) + J[\[CapitalNu][{z[5]}, {0, 0}], {w[{-(t - t^2)^(-1)}, {s}], 
        w[{(-t + t^2)^(-1)}, {z[4]*z[5]}], w[{t^(-1)}, {z[2]*z[4]}], 
        w[{t^(-1)}, {z[2]}]}, s]/(4*s) - 
     (3*J[\[CapitalNu][{z[5]}, {0, 0}], {w[{-(t - t^2)^(-1)}, {z[5]}], 
         w[{0}, {s}], w[{(1 - t)^(-1)}, {z[1]}], w[{(1 - t)^(-1)}, {z[1]}]}, 
        s])/(8*s) - (3*J[\[CapitalNu][{z[5]}, {0, 0}], 
        {w[{-(t - t^2)^(-1)}, {z[5]}], w[{0}, {s}], w[{t^(-1)}, {z[2]}], 
         w[{t^(-1)}, {z[2]}]}, s])/(8*s) + 
     J[\[CapitalNu][{z[5]}, {0, 0}], {w[{-(t - t^2)^(-1)}, {z[5]}], 
        w[{(1 - t)^(-1)}, {z[1]}], w[{0}, {s}], w[{(1 - t)^(-1)}, {z[1]}]}, 
       s]/(8*s) + (3*J[\[CapitalNu][{z[5]}, {0, 0}], 
        {w[{-(t - t^2)^(-1)}, {z[5]}], w[{(1 - t)^(-1)}, {z[1]}], 
         w[{(1 - t)^(-1)}, {s}], w[{(1 - t)^(-1)}, {z[1]}]}, s])/(8*s) + 
     J[\[CapitalNu][{z[5]}, {0, 0}], {w[{-(t - t^2)^(-1)}, {z[5]}], 
        w[{t^(-1)}, {z[2]}], w[{0}, {s}], w[{t^(-1)}, {z[2]}]}, s]/(8*s) + 
     (3*J[\[CapitalNu][{z[5]}, {0, 0}], {w[{-(t - t^2)^(-1)}, {z[5]}], 
         w[{t^(-1)}, {z[2]}], w[{t^(-1)}, {s}], w[{t^(-1)}, {z[2]}]}, s])/
      (8*s) - J[\[CapitalNu][{z[5]}, {0, 0}], {w[{(-t + t^2)^(-1)}, {s}], 
        w[{-(t - t^2)^(-1)}, {z[5]}], w[{(1 - t)^(-1)}, {z[1]}], 
        w[{(1 - t)^(-1)}, {z[1]}]}, s]/(8*s) - 
     J[\[CapitalNu][{z[5]}, {0, 0}], {w[{(-t + t^2)^(-1)}, {s}], 
        w[{-(t - t^2)^(-1)}, {z[5]}], w[{t^(-1)}, {z[2]}], 
        w[{t^(-1)}, {z[2]}]}, s]/(8*s) - J[\[CapitalNu][{z[5]}, {0, 0}], 
       {w[{(-t + t^2)^(-1)}, {s}], w[{(-t + t^2)^(-1)}, {z[3]*z[5]}], 
        w[{(1 - t)^(-1)}, {z[1]*z[3]}], w[{(1 - t)^(-1)}, {z[1]}]}, s]/
      (8*s) - J[\[CapitalNu][{z[5]}, {0, 0}], {w[{(-t + t^2)^(-1)}, {s}], 
        w[{(-t + t^2)^(-1)}, {z[4]*z[5]}], w[{t^(-1)}, {z[2]*z[4]}], 
        w[{t^(-1)}, {z[2]}]}, s]/(8*s) + 
     (3*J[\[CapitalNu][{z[5]}, {0, 0}], {w[{(-t + t^2)^(-1)}, {z[5]}], 
         w[{-(1 - t)^(-1)}, {z[4]}], w[{-(1 - t)^(-1)}, {z[4]}], 
         w[{0}, {s}]}, s])/(8*s) + 
     (3*J[\[CapitalNu][{z[5]}, {0, 0}], {w[{(-t + t^2)^(-1)}, {z[5]}], 
         w[{-t^(-1)}, {z[3]}], w[{-t^(-1)}, {z[3]}], w[{0}, {s}]}, s])/
      (8*s) + J[\[CapitalNu][{z[5]}, {0, 0}], 
       {w[{(-t + t^2)^(-1)}, {z[3]*z[5]}], w[{0}, {s}], 
        w[{(1 - t)^(-1)}, {z[1]*z[3]}], w[{(1 - t)^(-1)}, {z[1]}]}, s]/
      (8*s) + J[\[CapitalNu][{z[5]}, {0, 0}], 
       {w[{(-t + t^2)^(-1)}, {z[3]*z[5]}], w[{(1 - t)^(-1)}, {z[1]*z[3]}], 
        w[{0}, {s}], w[{(1 - t)^(-1)}, {z[1]}]}, s]/(8*s) + 
     (3*J[\[CapitalNu][{z[5]}, {0, 0}], {w[{(-t + t^2)^(-1)}, {z[3]*z[5]}], 
         w[{(1 - t)^(-1)}, {z[1]*z[3]}], w[{(1 - t)^(-1)}, {s}], 
         w[{(1 - t)^(-1)}, {z[1]}]}, s])/(8*s) + 
     J[\[CapitalNu][{z[5]}, {0, 0}], {w[{(-t + t^2)^(-1)}, {z[3]*z[5]}], 
        w[{-t^(-1)}, {s}], w[{(1 - t)^(-1)}, {z[1]*z[3]}], 
        w[{(1 - t)^(-1)}, {z[1]}]}, s]/(4*s) + 
     J[\[CapitalNu][{z[5]}, {0, 0}], {w[{(-t + t^2)^(-1)}, {z[4]*z[5]}], 
        w[{0}, {s}], w[{t^(-1)}, {z[2]*z[4]}], w[{t^(-1)}, {z[2]}]}, s]/
      (8*s) + J[\[CapitalNu][{z[5]}, {0, 0}], 
       {w[{(-t + t^2)^(-1)}, {z[4]*z[5]}], w[{-(1 - t)^(-1)}, {s}], 
        w[{t^(-1)}, {z[2]*z[4]}], w[{t^(-1)}, {z[2]}]}, s]/(4*s) + 
     J[\[CapitalNu][{z[5]}, {0, 0}], {w[{(-t + t^2)^(-1)}, {z[4]*z[5]}], 
        w[{t^(-1)}, {z[2]*z[4]}], w[{0}, {s}], w[{t^(-1)}, {z[2]}]}, s]/
      (8*s) + (3*J[\[CapitalNu][{z[5]}, {0, 0}], 
        {w[{(-t + t^2)^(-1)}, {z[4]*z[5]}], w[{t^(-1)}, {z[2]*z[4]}], 
         w[{t^(-1)}, {s}], w[{t^(-1)}, {z[2]}]}, s])/(8*s) - 
     J[\[CapitalNu][{z[5]}, {0, 1}], {w[{0}, {s}], w[{-t^(-1)}, {z[3]*z[5]}], 
        w[{(1 - t)^(-1)}, {z[1]*z[3]}], w[{(1 - t)^(-1)}, {z[1]}]}, s]/
      (8*s) - J[\[CapitalNu][{z[5]}, {0, 1}], {w[{-t^(-1)}, {z[3]*z[5]}], 
        w[{0}, {s}], w[{(1 - t)^(-1)}, {z[1]*z[3]}], w[{(1 - t)^(-1)}, 
         {z[1]}]}, s]/(8*s) - J[\[CapitalNu][{z[5]}, {0, 1}], 
       {w[{-t^(-1)}, {z[3]*z[5]}], w[{(1 - t)^(-1)}, {z[1]*z[3]}], 
        w[{0}, {s}], w[{(1 - t)^(-1)}, {z[1]}]}, s]/(8*s) - 
     (3*J[\[CapitalNu][{z[5]}, {0, 1}], {w[{-t^(-1)}, {z[3]*z[5]}], 
         w[{(1 - t)^(-1)}, {z[1]*z[3]}], w[{(1 - t)^(-1)}, {s}], 
         w[{(1 - t)^(-1)}, {z[1]}]}, s])/(8*s) - 
     J[\[CapitalNu][{z[5]}, {0, 1}], {w[{-t^(-1)}, {z[3]*z[5]}], 
        w[{-t^(-1)}, {s}], w[{(1 - t)^(-1)}, {z[1]*z[3]}], 
        w[{(1 - t)^(-1)}, {z[1]}]}, s]/(4*s) - 
     J[\[CapitalNu][{z[5]}, {0, 1}], {w[{-(t - t^2)^(-1)}, {s}], 
        w[{-t^(-1)}, {z[3]*z[5]}], w[{(1 - t)^(-1)}, {z[1]*z[3]}], 
        w[{(1 - t)^(-1)}, {z[1]}]}, s]/(4*s) + 
     J[\[CapitalNu][{z[5]}, {0, 1}], {w[{(-t + t^2)^(-1)}, {s}], 
        w[{-t^(-1)}, {z[3]*z[5]}], w[{(1 - t)^(-1)}, {z[1]*z[3]}], 
        w[{(1 - t)^(-1)}, {z[1]}]}, s]/(8*s) - 
     (3*J[\[CapitalNu][{z[5]}, {0, 1}], {w[{(-t + t^2)^(-1)}, {z[5]}], 
         w[{-(1 - t)^(-1)}, {z[4]}], w[{t^(-1)}, {z[2]*z[4]}], 
         w[{t^(-1)}, {z[2]}]}, s])/(8*s) - 
     (3*J[\[CapitalNu][{z[5]}, {0, 1}], {w[{(-t + t^2)^(-1)}, {z[5]}], 
         w[{-t^(-1)}, {z[3]}], w[{-t^(-1)}, {z[1]*z[3]}], 
         w[{(1 - t)^(-1)}, {z[1]}]}, s])/(8*s) + 
     J[\[CapitalNu][{z[5]}, {1, -1}], {w[{0}, {s}], w[{-(1 - t)^(-1)}, 
         {z[4]*z[5]}], w[{-(1 - t)^(-1)}, {z[4]}], w[{0}, {s}]}, s]/(8*s) + 
     J[\[CapitalNu][{z[5]}, {1, -1}], {w[{0}, {s}], w[{(-t + t^2)^(-1)}, 
         {z[4]*z[5]}], w[{-(1 - t)^(-1)}, {z[2]*z[4]}], w[{t^(-1)}, {z[2]}]}, 
       s]/(8*s) + J[\[CapitalNu][{z[5]}, {1, -1}], 
       {w[{-(1 - t)^(-1)}, {z[4]*z[5]}], w[{0}, {s}], w[{-(1 - t)^(-1)}, 
         {z[4]}], w[{0}, {s}]}, s]/(8*s) + 
     J[\[CapitalNu][{z[5]}, {1, -1}], {w[{-(1 - t)^(-1)}, {z[4]*z[5]}], 
        w[{-(1 - t)^(-1)}, {s}], w[{-(1 - t)^(-1)}, {z[4]}], w[{0}, {s}]}, s]/
      (4*s) + J[\[CapitalNu][{z[5]}, {1, -1}], 
       {w[{-(1 - t)^(-1)}, {z[4]*z[5]}], w[{-(1 - t)^(-1)}, {z[4]}], 
        w[{0}, {s}], w[{0}, {s}]}, s]/(8*s) + 
     (3*J[\[CapitalNu][{z[5]}, {1, -1}], {w[{-(1 - t)^(-1)}, {z[4]*z[5]}], 
         w[{-(1 - t)^(-1)}, {z[4]}], w[{t^(-1)}, {z[2]}], 
         w[{t^(-1)}, {z[2]}]}, s])/(8*s) + 
     J[\[CapitalNu][{z[5]}, {1, -1}], {w[{-(t - t^2)^(-1)}, {s}], 
        w[{-(1 - t)^(-1)}, {z[4]*z[5]}], w[{-(1 - t)^(-1)}, {z[4]}], 
        w[{0}, {s}]}, s]/(4*s) + J[\[CapitalNu][{z[5]}, {1, -1}], 
       {w[{-(t - t^2)^(-1)}, {s}], w[{(-t + t^2)^(-1)}, {z[4]*z[5]}], 
        w[{-(1 - t)^(-1)}, {z[2]*z[4]}], w[{t^(-1)}, {z[2]}]}, s]/(4*s) - 
     J[\[CapitalNu][{z[5]}, {1, -1}], {w[{(-t + t^2)^(-1)}, {s}], 
        w[{-(1 - t)^(-1)}, {z[4]*z[5]}], w[{-(1 - t)^(-1)}, {z[4]}], 
        w[{0}, {s}]}, s]/(8*s) - J[\[CapitalNu][{z[5]}, {1, -1}], 
       {w[{(-t + t^2)^(-1)}, {s}], w[{(-t + t^2)^(-1)}, {z[4]*z[5]}], 
        w[{-(1 - t)^(-1)}, {z[2]*z[4]}], w[{t^(-1)}, {z[2]}]}, s]/(8*s) + 
     J[\[CapitalNu][{z[5]}, {1, -1}], {w[{(-t + t^2)^(-1)}, {z[4]*z[5]}], 
        w[{0}, {s}], w[{-(1 - t)^(-1)}, {z[2]*z[4]}], w[{t^(-1)}, {z[2]}]}, 
       s]/(8*s) + J[\[CapitalNu][{z[5]}, {1, -1}], 
       {w[{(-t + t^2)^(-1)}, {z[4]*z[5]}], w[{-(1 - t)^(-1)}, {s}], 
        w[{-(1 - t)^(-1)}, {z[2]*z[4]}], w[{t^(-1)}, {z[2]}]}, s]/(4*s) + 
     J[\[CapitalNu][{z[5]}, {1, -1}], {w[{(-t + t^2)^(-1)}, {z[4]*z[5]}], 
        w[{-(1 - t)^(-1)}, {z[2]*z[4]}], w[{0}, {s}], w[{t^(-1)}, {z[2]}]}, 
       s]/(8*s) + (3*J[\[CapitalNu][{z[5]}, {1, -1}], 
        {w[{(-t + t^2)^(-1)}, {z[4]*z[5]}], w[{-(1 - t)^(-1)}, {z[2]*z[4]}], 
         w[{t^(-1)}, {s}], w[{t^(-1)}, {z[2]}]}, s])/(8*s) - 
     J[\[CapitalNu][{z[5]}, {1, 0}], {w[{0}, {s}], w[{-(1 - t)^(-1)}, 
         {z[4]*z[5]}], w[{t^(-1)}, {z[2]*z[4]}], w[{t^(-1)}, {z[2]}]}, s]/
      (8*s) - J[\[CapitalNu][{z[5]}, {1, 0}], 
       {w[{-(1 - t)^(-1)}, {z[4]*z[5]}], w[{0}, {s}], 
        w[{t^(-1)}, {z[2]*z[4]}], w[{t^(-1)}, {z[2]}]}, s]/(8*s) - 
     J[\[CapitalNu][{z[5]}, {1, 0}], {w[{-(1 - t)^(-1)}, {z[4]*z[5]}], 
        w[{-(1 - t)^(-1)}, {s}], w[{t^(-1)}, {z[2]*z[4]}], 
        w[{t^(-1)}, {z[2]}]}, s]/(4*s) - J[\[CapitalNu][{z[5]}, {1, 0}], 
       {w[{-(1 - t)^(-1)}, {z[4]*z[5]}], w[{t^(-1)}, {z[2]*z[4]}], 
        w[{0}, {s}], w[{t^(-1)}, {z[2]}]}, s]/(8*s) - 
     (3*J[\[CapitalNu][{z[5]}, {1, 0}], {w[{-(1 - t)^(-1)}, {z[4]*z[5]}], 
         w[{t^(-1)}, {z[2]*z[4]}], w[{t^(-1)}, {s}], w[{t^(-1)}, {z[2]}]}, 
        s])/(8*s) - J[\[CapitalNu][{z[5]}, {1, 0}], 
       {w[{-(t - t^2)^(-1)}, {s}], w[{-(1 - t)^(-1)}, {z[4]*z[5]}], 
        w[{t^(-1)}, {z[2]*z[4]}], w[{t^(-1)}, {z[2]}]}, s]/(4*s) + 
     J[\[CapitalNu][{z[5]}, {1, 0}], {w[{(-t + t^2)^(-1)}, {s}], 
        w[{-(1 - t)^(-1)}, {z[4]*z[5]}], w[{t^(-1)}, {z[2]*z[4]}], 
        w[{t^(-1)}, {z[2]}]}, s]/(8*s) - 
     (3*J[\[CapitalNu][{z[5]}, {1, 0}], {w[{(-t + t^2)^(-1)}, {z[5]}], 
         w[{-(1 - t)^(-1)}, {z[4]}], w[{-(1 - t)^(-1)}, {z[2]*z[4]}], 
         w[{t^(-1)}, {z[2]}]}, s])/(8*s) - 
     (3*J[\[CapitalNu][{z[5]}, {1, 0}], {w[{(-t + t^2)^(-1)}, {z[5]}], 
         w[{-t^(-1)}, {z[3]}], w[{(1 - t)^(-1)}, {z[1]*z[3]}], 
         w[{(1 - t)^(-1)}, {z[1]}]}, s])/(8*s) - 
     J[\[CapitalNu][{z[5]}, {2, -1}], {w[{0}, {s}], w[{-(1 - t)^(-1)}, 
         {z[4]*z[5]}], w[{-(1 - t)^(-1)}, {z[2]*z[4]}], w[{t^(-1)}, {z[2]}]}, 
       s]/(8*s) - J[\[CapitalNu][{z[5]}, {2, -1}], 
       {w[{-(1 - t)^(-1)}, {z[4]*z[5]}], w[{0}, {s}], w[{-(1 - t)^(-1)}, 
         {z[2]*z[4]}], w[{t^(-1)}, {z[2]}]}, s]/(8*s) - 
     J[\[CapitalNu][{z[5]}, {2, -1}], {w[{-(1 - t)^(-1)}, {z[4]*z[5]}], 
        w[{-(1 - t)^(-1)}, {s}], w[{-(1 - t)^(-1)}, {z[2]*z[4]}], 
        w[{t^(-1)}, {z[2]}]}, s]/(4*s) - J[\[CapitalNu][{z[5]}, {2, -1}], 
       {w[{-(1 - t)^(-1)}, {z[4]*z[5]}], w[{-(1 - t)^(-1)}, {z[2]*z[4]}], 
        w[{0}, {s}], w[{t^(-1)}, {z[2]}]}, s]/(8*s) - 
     (3*J[\[CapitalNu][{z[5]}, {2, -1}], {w[{-(1 - t)^(-1)}, {z[4]*z[5]}], 
         w[{-(1 - t)^(-1)}, {z[2]*z[4]}], w[{t^(-1)}, {s}], 
         w[{t^(-1)}, {z[2]}]}, s])/(8*s) - 
     J[\[CapitalNu][{z[5]}, {2, -1}], {w[{-(t - t^2)^(-1)}, {s}], 
        w[{-(1 - t)^(-1)}, {z[4]*z[5]}], w[{-(1 - t)^(-1)}, {z[2]*z[4]}], 
        w[{t^(-1)}, {z[2]}]}, s]/(4*s) + J[\[CapitalNu][{z[5]}, {2, -1}], 
       {w[{(-t + t^2)^(-1)}, {s}], w[{-(1 - t)^(-1)}, {z[4]*z[5]}], 
        w[{-(1 - t)^(-1)}, {z[2]*z[4]}], w[{t^(-1)}, {z[2]}]}, s]/(8*s) + 
     ((I/8)*J[\[CapitalNu][{z[5]}, {-1, 0}], {w[{0}, {s}], 
         w[{(-t + t^2)^(-1)}, {z[3]*z[5]}], w[{-t^(-1)}, {z[3]}]}, s]*
       (Pi + I*Log[4]))/s + ((I/4)*J[\[CapitalNu][{z[5]}, {-1, 0}], 
        {w[{-(t - t^2)^(-1)}, {s}], w[{(-t + t^2)^(-1)}, {z[3]*z[5]}], 
         w[{-t^(-1)}, {z[3]}]}, s]*(Pi + I*Log[4]))/s + 
     ((I/8)*J[\[CapitalNu][{z[5]}, {-1, 0}], 
        {w[{(-t + t^2)^(-1)}, {z[3]*z[5]}], w[{0}, {s}], 
         w[{-t^(-1)}, {z[3]}]}, s]*(Pi + I*Log[4]))/s + 
     ((I/4)*J[\[CapitalNu][{z[5]}, {-1, 0}], 
        {w[{(-t + t^2)^(-1)}, {z[3]*z[5]}], w[{-t^(-1)}, {s}], 
         w[{-t^(-1)}, {z[3]}]}, s]*(Pi + I*Log[4]))/s + 
     ((I/8)*J[\[CapitalNu][{z[5]}, {-1, 0}], 
        {w[{(-t + t^2)^(-1)}, {z[3]*z[5]}], w[{-t^(-1)}, {z[3]}], 
         w[{0}, {s}]}, s]*(Pi + I*Log[4]))/s - 
     ((I/8)*J[\[CapitalNu][{z[5]}, {-1, 1}], {w[{0}, {s}], 
         w[{-t^(-1)}, {z[3]*z[5]}], w[{-t^(-1)}, {z[3]}]}, s]*
       (Pi + I*Log[4]))/s - ((I/8)*J[\[CapitalNu][{z[5]}, {-1, 1}], 
        {w[{-t^(-1)}, {z[3]*z[5]}], w[{0}, {s}], w[{-t^(-1)}, {z[3]}]}, s]*
       (Pi + I*Log[4]))/s - ((I/4)*J[\[CapitalNu][{z[5]}, {-1, 1}], 
        {w[{-t^(-1)}, {z[3]*z[5]}], w[{-t^(-1)}, {s}], w[{-t^(-1)}, {z[3]}]}, 
        s]*(Pi + I*Log[4]))/s - ((I/8)*J[\[CapitalNu][{z[5]}, {-1, 1}], 
        {w[{-t^(-1)}, {z[3]*z[5]}], w[{-t^(-1)}, {z[3]}], w[{0}, {s}]}, s]*
       (Pi + I*Log[4]))/s - ((I/4)*J[\[CapitalNu][{z[5]}, {-1, 1}], 
        {w[{-(t - t^2)^(-1)}, {s}], w[{-t^(-1)}, {z[3]*z[5]}], 
         w[{-t^(-1)}, {z[3]}]}, s]*(Pi + I*Log[4]))/s - 
     ((I/8)*J[\[CapitalNu][{z[5]}, {0, -1}], {w[{(-t + t^2)^(-1)}, {s}], 
         w[{(-t + t^2)^(-1)}, {z[4]*z[5]}], w[{-(1 - t)^(-1)}, {z[4]}]}, s]*
       (Pi + I*Log[4]))/s - ((I/8)*J[\[CapitalNu][{z[5]}, {1, -1}], 
        {w[{0}, {s}], w[{-(1 - t)^(-1)}, {z[4]*z[5]}], w[{-(1 - t)^(-1)}, 
          {z[4]}]}, s]*(Pi + I*Log[4]))/s - 
     ((I/8)*J[\[CapitalNu][{z[5]}, {1, -1}], 
        {w[{-(1 - t)^(-1)}, {z[4]*z[5]}], w[{0}, {s}], w[{-(1 - t)^(-1)}, 
          {z[4]}]}, s]*(Pi + I*Log[4]))/s - 
     ((I/4)*J[\[CapitalNu][{z[5]}, {1, -1}], 
        {w[{-(1 - t)^(-1)}, {z[4]*z[5]}], w[{-(1 - t)^(-1)}, {s}], 
         w[{-(1 - t)^(-1)}, {z[4]}]}, s]*(Pi + I*Log[4]))/s - 
     ((I/8)*J[\[CapitalNu][{z[5]}, {1, -1}], 
        {w[{-(1 - t)^(-1)}, {z[4]*z[5]}], w[{-(1 - t)^(-1)}, {z[4]}], 
         w[{0}, {s}]}, s]*(Pi + I*Log[4]))/s - 
     ((I/4)*J[\[CapitalNu][{z[5]}, {1, -1}], {w[{-(t - t^2)^(-1)}, {s}], 
         w[{-(1 - t)^(-1)}, {z[4]*z[5]}], w[{-(1 - t)^(-1)}, {z[4]}]}, s]*
       (Pi + I*Log[4]))/s + (J[\[CapitalNu][{z[5]}, {-1, 0}], 
        {w[{(-t + t^2)^(-1)}, {s}], w[{(-t + t^2)^(-1)}, {z[3]*z[5]}], 
         w[{-t^(-1)}, {z[3]}]}, s]*((-I)*Pi + Log[4]))/(8*s) - 
     (J[\[CapitalNu][{z[5]}, {-1, 1}], {w[{(-t + t^2)^(-1)}, {s}], 
         w[{-t^(-1)}, {z[3]*z[5]}], w[{-t^(-1)}, {z[3]}]}, s]*
       ((-I)*Pi + Log[4]))/(8*s) - 
     (J[\[CapitalNu][{z[5]}, {0, -1}], {w[{0}, {s}], w[{(-t + t^2)^(-1)}, 
          {z[4]*z[5]}], w[{-(1 - t)^(-1)}, {z[4]}]}, s]*((-I)*Pi + Log[4]))/
      (8*s) - (J[\[CapitalNu][{z[5]}, {0, -1}], {w[{-(t - t^2)^(-1)}, {s}], 
         w[{(-t + t^2)^(-1)}, {z[4]*z[5]}], w[{-(1 - t)^(-1)}, {z[4]}]}, s]*
       ((-I)*Pi + Log[4]))/(4*s) - 
     (J[\[CapitalNu][{z[5]}, {0, -1}], {w[{(-t + t^2)^(-1)}, {z[4]*z[5]}], 
         w[{0}, {s}], w[{-(1 - t)^(-1)}, {z[4]}]}, s]*((-I)*Pi + Log[4]))/
      (8*s) - (J[\[CapitalNu][{z[5]}, {0, -1}], 
        {w[{(-t + t^2)^(-1)}, {z[4]*z[5]}], w[{-(1 - t)^(-1)}, {s}], 
         w[{-(1 - t)^(-1)}, {z[4]}]}, s]*((-I)*Pi + Log[4]))/(4*s) - 
     (J[\[CapitalNu][{z[5]}, {0, -1}], {w[{(-t + t^2)^(-1)}, {z[4]*z[5]}], 
         w[{-(1 - t)^(-1)}, {z[4]}], w[{0}, {s}]}, s]*((-I)*Pi + Log[4]))/
      (8*s) + (3*J[\[CapitalNu][{z[5]}, {0, 0}], 
        {w[{(-t + t^2)^(-1)}, {z[5]}], w[{-(1 - t)^(-1)}, {z[4]}], 
         w[{-(1 - t)^(-1)}, {z[4]}]}, s]*((-I)*Pi + Log[4]))/(8*s) + 
     (3*J[\[CapitalNu][{z[5]}, {0, 0}], {w[{(-t + t^2)^(-1)}, {z[5]}], 
         w[{-t^(-1)}, {z[3]}], w[{-t^(-1)}, {z[3]}]}, s]*((-I)*Pi + Log[4]))/
      (8*s) - (J[\[CapitalNu][{z[5]}, {1, -1}], {w[{(-t + t^2)^(-1)}, {s}], 
         w[{-(1 - t)^(-1)}, {z[4]*z[5]}], w[{-(1 - t)^(-1)}, {z[4]}]}, s]*
       ((-I)*Pi + Log[4]))/(8*s) + 
     (J[\[CapitalNu][{z[5]}, {-1, 0}], {w[{(-t + t^2)^(-1)}, {z[3]*z[5]}], 
         w[{-t^(-1)}, {z[3]}]}, s]*(4*Pi^2 - 12*Log[2]^2 + (3*I)*Pi*Log[16]))/
      (48*s) - (J[\[CapitalNu][{z[5]}, {-1, 1}], {w[{-t^(-1)}, {z[3]*z[5]}], 
         w[{-t^(-1)}, {z[3]}]}, s]*(4*Pi^2 - 12*Log[2]^2 + (3*I)*Pi*Log[16]))/
      (48*s) + (J[\[CapitalNu][{z[5]}, {0, -1}], 
        {w[{(-t + t^2)^(-1)}, {z[4]*z[5]}], w[{-(1 - t)^(-1)}, {z[4]}]}, s]*
       (4*Pi^2 - 12*Log[2]^2 + (3*I)*Pi*Log[16]))/(48*s) - 
     (J[\[CapitalNu][{z[5]}, {1, -1}], {w[{-(1 - t)^(-1)}, {z[4]*z[5]}], 
         w[{-(1 - t)^(-1)}, {z[4]}]}, s]*(4*Pi^2 - 12*Log[2]^2 + 
        (3*I)*Pi*Log[16]))/(48*s)), j[vertexDE, 2, 1, 1, 1, 1, 1] -> 
  -J[\[CapitalKappa][{z[4]}, {0, 1}], {w[{-(1 - t)^(-1)}, {z[4]}], 
       w[{0}, {s}]}, s]/32 + J[\[CapitalKappa][{z[4]}, {0, 2}], 
     {w[{t^(-1)}, {z[2]*z[4]}], w[{t^(-1)}, {z[2]}]}, s]/32 + 
   J[\[CapitalKappa][{z[4]}, {1, 1}], {w[{-(1 - t)^(-1)}, {z[2]*z[4]}], 
      w[{t^(-1)}, {z[2]}]}, s]/32 - 
   J[\[CapitalNu][{0, 0}], {w[{(1 - t)^(-1)}, {z[1]}], 
      w[{(1 - t)^(-1)}, {z[1]}]}, s]/(32*s) - 
   J[\[CapitalNu][{0, 0}], {w[{t^(-1)}, {z[2]}], w[{t^(-1)}, {z[2]}]}, s]/
    (32*s) + J[\[CapitalOmega][{z[3]}, {1, 0}], {w[{-t^(-1)}, {z[3]}], 
      w[{0}, {s}]}, s]/32 - J[\[CapitalOmega][{z[3]}, {1, 1}], 
     {w[{-t^(-1)}, {z[1]*z[3]}], w[{(1 - t)^(-1)}, {z[1]}]}, s]/32 - 
   J[\[CapitalOmega][{z[3]}, {2, 0}], {w[{(1 - t)^(-1)}, {z[1]*z[3]}], 
      w[{(1 - t)^(-1)}, {z[1]}]}, s]/32 - 
   J[\[CapitalDigamma][{z[5]}, {-1, 0}], {w[{(-t + t^2)^(-1)}, {z[3]*z[5]}], 
      w[{-t^(-1)}, {z[3]}], w[{0}, {s}]}, s]/(64*s) - 
   J[\[CapitalDigamma][{z[5]}, {-1, 2}], {w[{-t^(-1)}, {z[3]*z[5]}], 
      w[{-t^(-1)}, {z[1]*z[3]}], w[{(1 - t)^(-1)}, {z[1]}]}, s]/(64*s) - 
   J[\[CapitalDigamma][{z[5]}, {0, -1}], {w[{(-t + t^2)^(-1)}, {z[4]*z[5]}], 
      w[{-(1 - t)^(-1)}, {z[4]}], w[{0}, {s}]}, s]/(64*s) + 
   (J[\[CapitalDigamma][{z[5]}, {-1, 0}], {w[{-t^(-1)}, {z[3]*z[5]}], 
       w[{-t^(-1)}, {z[3]}], w[{0}, {s}]}, s] - 
     J[\[CapitalDigamma][{z[5]}, {0, 0}], {w[{-t^(-1)}, {z[3]*z[5]}], 
       w[{-t^(-1)}, {z[3]}], w[{0}, {s}]}, s])/(64*s) + 
   J[\[CapitalDigamma][{z[5]}, {0, 0}], {w[{-(t - t^2)^(-1)}, {z[5]}], 
      w[{(1 - t)^(-1)}, {z[1]}], w[{(1 - t)^(-1)}, {z[1]}]}, s]/(64*s) + 
   J[\[CapitalDigamma][{z[5]}, {0, 0}], {w[{-(t - t^2)^(-1)}, {z[5]}], 
      w[{t^(-1)}, {z[2]}], w[{t^(-1)}, {z[2]}]}, s]/(64*s) + 
   J[\[CapitalDigamma][{z[5]}, {0, 0}], {w[{(-t + t^2)^(-1)}, {z[3]*z[5]}], 
      w[{(1 - t)^(-1)}, {z[1]*z[3]}], w[{(1 - t)^(-1)}, {z[1]}]}, s]/(64*s) + 
   (J[\[CapitalDigamma][{z[5]}, {-1, 0}], {w[{(-t + t^2)^(-1)}, {z[3]*z[5]}], 
       w[{-t^(-1)}, {z[1]*z[3]}], w[{(1 - t)^(-1)}, {z[1]}]}, s] - 
     J[\[CapitalDigamma][{z[5]}, {0, 0}], {w[{(-t + t^2)^(-1)}, {z[3]*z[5]}], 
       w[{-t^(-1)}, {z[1]*z[3]}], w[{(1 - t)^(-1)}, {z[1]}]}, s])/(64*s) + 
   J[\[CapitalDigamma][{z[5]}, {0, 0}], {w[{(-t + t^2)^(-1)}, {z[4]*z[5]}], 
      w[{t^(-1)}, {z[2]*z[4]}], w[{t^(-1)}, {z[2]}]}, s]/(64*s) - 
   J[\[CapitalDigamma][{z[5]}, {0, 1}], {w[{-t^(-1)}, {z[3]*z[5]}], 
      w[{(1 - t)^(-1)}, {z[1]*z[3]}], w[{(1 - t)^(-1)}, {z[1]}]}, s]/(64*s) + 
   J[\[CapitalDigamma][{z[5]}, {1, -1}], {w[{-(1 - t)^(-1)}, {z[4]*z[5]}], 
      w[{-(1 - t)^(-1)}, {z[4]}], w[{0}, {s}]}, s]/(64*s) + 
   J[\[CapitalDigamma][{z[5]}, {1, -1}], {w[{(-t + t^2)^(-1)}, {z[4]*z[5]}], 
      w[{-(1 - t)^(-1)}, {z[2]*z[4]}], w[{t^(-1)}, {z[2]}]}, s]/(64*s) - 
   J[\[CapitalDigamma][{z[5]}, {1, 0}], {w[{-(1 - t)^(-1)}, {z[4]*z[5]}], 
      w[{t^(-1)}, {z[2]*z[4]}], w[{t^(-1)}, {z[2]}]}, s]/(64*s) - 
   J[\[CapitalDigamma][{z[5]}, {2, -1}], {w[{-(1 - t)^(-1)}, {z[4]*z[5]}], 
      w[{-(1 - t)^(-1)}, {z[2]*z[4]}], w[{t^(-1)}, {z[2]}]}, s]/(64*s) + 
   ((I/64)*J[\[CapitalDigamma][{z[5]}, {-1, 0}], 
      {w[{(-t + t^2)^(-1)}, {z[3]*z[5]}], w[{-t^(-1)}, {z[3]}]}, s]*
     (Pi + I*Log[4]))/s - ((I/64)*J[\[CapitalDigamma][{z[5]}, {-1, 1}], 
      {w[{-t^(-1)}, {z[3]*z[5]}], w[{-t^(-1)}, {z[3]}]}, s]*(Pi + I*Log[4]))/
    s - ((I/64)*J[\[CapitalDigamma][{z[5]}, {1, -1}], 
      {w[{-(1 - t)^(-1)}, {z[4]*z[5]}], w[{-(1 - t)^(-1)}, {z[4]}]}, s]*
     (Pi + I*Log[4]))/s - (J[\[CapitalKappa][{z[4]}, {0, 1}], 
      {w[{-(1 - t)^(-1)}, {z[4]}]}, s]*((-I)*Pi + Log[4]))/32 + 
   (J[\[CapitalOmega][{z[3]}, {1, 0}], {w[{-t^(-1)}, {z[3]}]}, s]*
     ((-I)*Pi + Log[4]))/32 - 
   (J[\[CapitalDigamma][{z[5]}, {0, -1}], {w[{(-t + t^2)^(-1)}, {z[4]*z[5]}], 
       w[{-(1 - t)^(-1)}, {z[4]}]}, s]*((-I)*Pi + Log[4]))/(64*s) + 
   \[CurlyEpsilon]*(J[\[CapitalKappa][{z[4]}, {0, 1}], 
       {w[{0}, {s}], w[{-(1 - t)^(-1)}, {z[4]}], w[{0}, {s}]}, s]/32 + 
     J[\[CapitalKappa][{z[4]}, {0, 1}], {w[{-(1 - t)^(-1)}, {s}], 
        w[{-(1 - t)^(-1)}, {z[4]}], w[{0}, {s}]}, s]/16 + 
     J[\[CapitalKappa][{z[4]}, {0, 1}], {w[{-(1 - t)^(-1)}, {z[4]}], 
        w[{0}, {s}], w[{0}, {s}]}, s]/32 + 
     (3*J[\[CapitalKappa][{z[4]}, {0, 1}], {w[{-(1 - t)^(-1)}, {z[4]}], 
         w[{t^(-1)}, {z[2]}], w[{t^(-1)}, {z[2]}]}, s])/32 - 
     J[\[CapitalKappa][{z[4]}, {0, 2}], {w[{0}, {s}], 
        w[{t^(-1)}, {z[2]*z[4]}], w[{t^(-1)}, {z[2]}]}, s]/32 - 
     J[\[CapitalKappa][{z[4]}, {0, 2}], {w[{-(1 - t)^(-1)}, {s}], 
        w[{t^(-1)}, {z[2]*z[4]}], w[{t^(-1)}, {z[2]}]}, s]/16 - 
     J[\[CapitalKappa][{z[4]}, {0, 2}], {w[{t^(-1)}, {z[2]*z[4]}], 
        w[{0}, {s}], w[{t^(-1)}, {z[2]}]}, s]/32 - 
     (3*J[\[CapitalKappa][{z[4]}, {0, 2}], {w[{t^(-1)}, {z[2]*z[4]}], 
         w[{t^(-1)}, {s}], w[{t^(-1)}, {z[2]}]}, s])/32 - 
     J[\[CapitalKappa][{z[4]}, {1, 1}], {w[{0}, {s}], w[{-(1 - t)^(-1)}, 
         {z[2]*z[4]}], w[{t^(-1)}, {z[2]}]}, s]/32 - 
     J[\[CapitalKappa][{z[4]}, {1, 1}], {w[{-(1 - t)^(-1)}, {s}], 
        w[{-(1 - t)^(-1)}, {z[2]*z[4]}], w[{t^(-1)}, {z[2]}]}, s]/16 - 
     J[\[CapitalKappa][{z[4]}, {1, 1}], {w[{-(1 - t)^(-1)}, {z[2]*z[4]}], 
        w[{0}, {s}], w[{t^(-1)}, {z[2]}]}, s]/32 - 
     (3*J[\[CapitalKappa][{z[4]}, {1, 1}], {w[{-(1 - t)^(-1)}, {z[2]*z[4]}], 
         w[{t^(-1)}, {s}], w[{t^(-1)}, {z[2]}]}, s])/32 - 
     (3*J[\[CapitalNu][{0, 0}], {w[{0}, {s}], w[{(1 - t)^(-1)}, {z[1]}], 
         w[{(1 - t)^(-1)}, {z[1]}]}, s])/(32*s) - 
     (3*J[\[CapitalNu][{0, 0}], {w[{0}, {s}], w[{t^(-1)}, {z[2]}], 
         w[{t^(-1)}, {z[2]}]}, s])/(32*s) + 
     (3*J[\[CapitalNu][{0, 0}], {w[{-(1 - t)^(-1)}, {z[4]}], 
         w[{-(1 - t)^(-1)}, {z[4]}], w[{0}, {s}]}, s])/(32*s) + 
     J[\[CapitalNu][{0, 0}], {w[{(1 - t)^(-1)}, {z[1]}], w[{0}, {s}], 
        w[{(1 - t)^(-1)}, {z[1]}]}, s]/(32*s) + 
     (3*J[\[CapitalNu][{0, 0}], {w[{(1 - t)^(-1)}, {z[1]}], 
         w[{(1 - t)^(-1)}, {s}], w[{(1 - t)^(-1)}, {z[1]}]}, s])/(32*s) + 
     (3*J[\[CapitalNu][{0, 0}], {w[{-t^(-1)}, {z[3]}], w[{-t^(-1)}, {z[3]}], 
         w[{0}, {s}]}, s])/(32*s) + J[\[CapitalNu][{0, 0}], 
       {w[{t^(-1)}, {z[2]}], w[{0}, {s}], w[{t^(-1)}, {z[2]}]}, s]/(32*s) + 
     (3*J[\[CapitalNu][{0, 0}], {w[{t^(-1)}, {z[2]}], w[{t^(-1)}, {s}], 
         w[{t^(-1)}, {z[2]}]}, s])/(32*s) - 
     (3*J[\[CapitalNu][{0, 1}], {w[{-(1 - t)^(-1)}, {z[4]}], 
         w[{t^(-1)}, {z[2]*z[4]}], w[{t^(-1)}, {z[2]}]}, s])/(32*s) - 
     (3*J[\[CapitalNu][{0, 1}], {w[{-t^(-1)}, {z[3]}], 
         w[{-t^(-1)}, {z[1]*z[3]}], w[{(1 - t)^(-1)}, {z[1]}]}, s])/(32*s) - 
     (3*J[\[CapitalNu][{1, 0}], {w[{-(1 - t)^(-1)}, {z[4]}], 
         w[{-(1 - t)^(-1)}, {z[2]*z[4]}], w[{t^(-1)}, {z[2]}]}, s])/(32*s) - 
     (3*J[\[CapitalNu][{1, 0}], {w[{-t^(-1)}, {z[3]}], w[{(1 - t)^(-1)}, 
          {z[1]*z[3]}], w[{(1 - t)^(-1)}, {z[1]}]}, s])/(32*s) - 
     J[\[CapitalOmega][{z[3]}, {1, 0}], {w[{0}, {s}], w[{-t^(-1)}, {z[3]}], 
        w[{0}, {s}]}, s]/32 - J[\[CapitalOmega][{z[3]}, {1, 0}], 
       {w[{-t^(-1)}, {s}], w[{-t^(-1)}, {z[3]}], w[{0}, {s}]}, s]/16 - 
     J[\[CapitalOmega][{z[3]}, {1, 0}], {w[{-t^(-1)}, {z[3]}], w[{0}, {s}], 
        w[{0}, {s}]}, s]/32 - (3*J[\[CapitalOmega][{z[3]}, {1, 0}], 
        {w[{-t^(-1)}, {z[3]}], w[{(1 - t)^(-1)}, {z[1]}], 
         w[{(1 - t)^(-1)}, {z[1]}]}, s])/32 + 
     J[\[CapitalOmega][{z[3]}, {1, 1}], {w[{0}, {s}], 
        w[{-t^(-1)}, {z[1]*z[3]}], w[{(1 - t)^(-1)}, {z[1]}]}, s]/32 + 
     J[\[CapitalOmega][{z[3]}, {1, 1}], {w[{-t^(-1)}, {s}], 
        w[{-t^(-1)}, {z[1]*z[3]}], w[{(1 - t)^(-1)}, {z[1]}]}, s]/16 + 
     J[\[CapitalOmega][{z[3]}, {1, 1}], {w[{-t^(-1)}, {z[1]*z[3]}], 
        w[{0}, {s}], w[{(1 - t)^(-1)}, {z[1]}]}, s]/32 + 
     (3*J[\[CapitalOmega][{z[3]}, {1, 1}], {w[{-t^(-1)}, {z[1]*z[3]}], 
         w[{(1 - t)^(-1)}, {s}], w[{(1 - t)^(-1)}, {z[1]}]}, s])/32 + 
     J[\[CapitalOmega][{z[3]}, {2, 0}], {w[{0}, {s}], w[{(1 - t)^(-1)}, 
         {z[1]*z[3]}], w[{(1 - t)^(-1)}, {z[1]}]}, s]/32 + 
     J[\[CapitalOmega][{z[3]}, {2, 0}], {w[{(1 - t)^(-1)}, {z[1]*z[3]}], 
        w[{0}, {s}], w[{(1 - t)^(-1)}, {z[1]}]}, s]/32 + 
     (3*J[\[CapitalOmega][{z[3]}, {2, 0}], {w[{(1 - t)^(-1)}, {z[1]*z[3]}], 
         w[{(1 - t)^(-1)}, {s}], w[{(1 - t)^(-1)}, {z[1]}]}, s])/32 + 
     J[\[CapitalOmega][{z[3]}, {2, 0}], {w[{-t^(-1)}, {s}], 
        w[{(1 - t)^(-1)}, {z[1]*z[3]}], w[{(1 - t)^(-1)}, {z[1]}]}, s]/16 + 
     J[\[CapitalDigamma][{z[5]}, {-1, 0}], {w[{0}, {s}], 
        w[{(-t + t^2)^(-1)}, {z[3]*z[5]}], w[{-t^(-1)}, {z[3]}], 
        w[{0}, {s}]}, s]/(64*s) + J[\[CapitalDigamma][{z[5]}, {-1, 0}], 
       {w[{-(t - t^2)^(-1)}, {s}], w[{(-t + t^2)^(-1)}, {z[3]*z[5]}], 
        w[{-t^(-1)}, {z[3]}], w[{0}, {s}]}, s]/(32*s) - 
     J[\[CapitalDigamma][{z[5]}, {-1, 0}], {w[{(-t + t^2)^(-1)}, {s}], 
        w[{(-t + t^2)^(-1)}, {z[3]*z[5]}], w[{-t^(-1)}, {z[3]}], 
        w[{0}, {s}]}, s]/(64*s) + J[\[CapitalDigamma][{z[5]}, {-1, 0}], 
       {w[{(-t + t^2)^(-1)}, {z[3]*z[5]}], w[{0}, {s}], w[{-t^(-1)}, {z[3]}], 
        w[{0}, {s}]}, s]/(64*s) + J[\[CapitalDigamma][{z[5]}, {-1, 0}], 
       {w[{(-t + t^2)^(-1)}, {z[3]*z[5]}], w[{-t^(-1)}, {s}], 
        w[{-t^(-1)}, {z[3]}], w[{0}, {s}]}, s]/(32*s) + 
     J[\[CapitalDigamma][{z[5]}, {-1, 0}], 
       {w[{(-t + t^2)^(-1)}, {z[3]*z[5]}], w[{-t^(-1)}, {z[3]}], w[{0}, {s}], 
        w[{0}, {s}]}, s]/(64*s) + (3*J[\[CapitalDigamma][{z[5]}, {-1, 0}], 
        {w[{(-t + t^2)^(-1)}, {z[3]*z[5]}], w[{-t^(-1)}, {z[3]}], 
         w[{(1 - t)^(-1)}, {z[1]}], w[{(1 - t)^(-1)}, {z[1]}]}, s])/(64*s) - 
     J[\[CapitalDigamma][{z[5]}, {-1, 1}], {w[{0}, {s}], 
        w[{-t^(-1)}, {z[3]*z[5]}], w[{-t^(-1)}, {z[3]}], w[{0}, {s}]}, s]/
      (64*s) - J[\[CapitalDigamma][{z[5]}, {-1, 1}], 
       {w[{0}, {s}], w[{(-t + t^2)^(-1)}, {z[3]*z[5]}], 
        w[{-t^(-1)}, {z[1]*z[3]}], w[{(1 - t)^(-1)}, {z[1]}]}, s]/(64*s) - 
     J[\[CapitalDigamma][{z[5]}, {-1, 1}], {w[{-t^(-1)}, {z[3]*z[5]}], 
        w[{0}, {s}], w[{-t^(-1)}, {z[3]}], w[{0}, {s}]}, s]/(64*s) - 
     J[\[CapitalDigamma][{z[5]}, {-1, 1}], {w[{-t^(-1)}, {z[3]*z[5]}], 
        w[{-t^(-1)}, {s}], w[{-t^(-1)}, {z[3]}], w[{0}, {s}]}, s]/(32*s) - 
     J[\[CapitalDigamma][{z[5]}, {-1, 1}], {w[{-t^(-1)}, {z[3]*z[5]}], 
        w[{-t^(-1)}, {z[3]}], w[{0}, {s}], w[{0}, {s}]}, s]/(64*s) - 
     (3*J[\[CapitalDigamma][{z[5]}, {-1, 1}], {w[{-t^(-1)}, {z[3]*z[5]}], 
         w[{-t^(-1)}, {z[3]}], w[{(1 - t)^(-1)}, {z[1]}], 
         w[{(1 - t)^(-1)}, {z[1]}]}, s])/(64*s) - 
     J[\[CapitalDigamma][{z[5]}, {-1, 1}], {w[{-(t - t^2)^(-1)}, {s}], 
        w[{-t^(-1)}, {z[3]*z[5]}], w[{-t^(-1)}, {z[3]}], w[{0}, {s}]}, s]/
      (32*s) - J[\[CapitalDigamma][{z[5]}, {-1, 1}], 
       {w[{-(t - t^2)^(-1)}, {s}], w[{(-t + t^2)^(-1)}, {z[3]*z[5]}], 
        w[{-t^(-1)}, {z[1]*z[3]}], w[{(1 - t)^(-1)}, {z[1]}]}, s]/(32*s) - 
     J[\[CapitalDigamma][{z[5]}, {-1, 1}], 
       {w[{(-t + t^2)^(-1)}, {z[3]*z[5]}], w[{0}, {s}], 
        w[{-t^(-1)}, {z[1]*z[3]}], w[{(1 - t)^(-1)}, {z[1]}]}, s]/(64*s) - 
     J[\[CapitalDigamma][{z[5]}, {-1, 1}], 
       {w[{(-t + t^2)^(-1)}, {z[3]*z[5]}], w[{-t^(-1)}, {s}], 
        w[{-t^(-1)}, {z[1]*z[3]}], w[{(1 - t)^(-1)}, {z[1]}]}, s]/(32*s) - 
     J[\[CapitalDigamma][{z[5]}, {-1, 1}], 
       {w[{(-t + t^2)^(-1)}, {z[3]*z[5]}], w[{-t^(-1)}, {z[1]*z[3]}], 
        w[{0}, {s}], w[{(1 - t)^(-1)}, {z[1]}]}, s]/(64*s) - 
     (3*J[\[CapitalDigamma][{z[5]}, {-1, 1}], 
        {w[{(-t + t^2)^(-1)}, {z[3]*z[5]}], w[{-t^(-1)}, {z[1]*z[3]}], 
         w[{(1 - t)^(-1)}, {s}], w[{(1 - t)^(-1)}, {z[1]}]}, s])/(64*s) - 
     J[\[CapitalDigamma][{z[5]}, {-1, 2}], {w[{-t^(-1)}, {z[3]*z[5]}], 
        w[{-t^(-1)}, {z[1]*z[3]}], w[{(1 - t)^(-1)}, {z[1]}]}, s]/(32*s) + 
     J[\[CapitalDigamma][{z[5]}, {-1, 2}], {w[{0}, {s}], 
        w[{-t^(-1)}, {z[3]*z[5]}], w[{-t^(-1)}, {z[1]*z[3]}], 
        w[{(1 - t)^(-1)}, {z[1]}]}, s]/(64*s) + 
     J[\[CapitalDigamma][{z[5]}, {-1, 2}], {w[{-t^(-1)}, {z[3]*z[5]}], 
        w[{0}, {s}], w[{-t^(-1)}, {z[1]*z[3]}], w[{(1 - t)^(-1)}, {z[1]}]}, 
       s]/(64*s) + J[\[CapitalDigamma][{z[5]}, {-1, 2}], 
       {w[{-t^(-1)}, {z[3]*z[5]}], w[{-t^(-1)}, {s}], 
        w[{-t^(-1)}, {z[1]*z[3]}], w[{(1 - t)^(-1)}, {z[1]}]}, s]/(32*s) + 
     J[\[CapitalDigamma][{z[5]}, {-1, 2}], {w[{-t^(-1)}, {z[3]*z[5]}], 
        w[{-t^(-1)}, {z[1]*z[3]}], w[{0}, {s}], w[{(1 - t)^(-1)}, {z[1]}]}, 
       s]/(64*s) + (3*J[\[CapitalDigamma][{z[5]}, {-1, 2}], 
        {w[{-t^(-1)}, {z[3]*z[5]}], w[{-t^(-1)}, {z[1]*z[3]}], 
         w[{(1 - t)^(-1)}, {s}], w[{(1 - t)^(-1)}, {z[1]}]}, s])/(64*s) + 
     J[\[CapitalDigamma][{z[5]}, {-1, 2}], {w[{-(t - t^2)^(-1)}, {s}], 
        w[{-t^(-1)}, {z[3]*z[5]}], w[{-t^(-1)}, {z[1]*z[3]}], 
        w[{(1 - t)^(-1)}, {z[1]}]}, s]/(32*s) - 
     J[\[CapitalDigamma][{z[5]}, {-1, 2}], {w[{(-t + t^2)^(-1)}, {s}], 
        w[{-t^(-1)}, {z[3]*z[5]}], w[{-t^(-1)}, {z[1]*z[3]}], 
        w[{(1 - t)^(-1)}, {z[1]}]}, s]/(64*s) + 
     J[\[CapitalDigamma][{z[5]}, {0, -1}], {w[{0}, {s}], 
        w[{(-t + t^2)^(-1)}, {z[4]*z[5]}], w[{-(1 - t)^(-1)}, {z[4]}], 
        w[{0}, {s}]}, s]/(64*s) + J[\[CapitalDigamma][{z[5]}, {0, -1}], 
       {w[{-(t - t^2)^(-1)}, {s}], w[{(-t + t^2)^(-1)}, {z[4]*z[5]}], 
        w[{-(1 - t)^(-1)}, {z[4]}], w[{0}, {s}]}, s]/(32*s) - 
     J[\[CapitalDigamma][{z[5]}, {0, -1}], {w[{(-t + t^2)^(-1)}, {s}], 
        w[{(-t + t^2)^(-1)}, {z[4]*z[5]}], w[{-(1 - t)^(-1)}, {z[4]}], 
        w[{0}, {s}]}, s]/(64*s) + J[\[CapitalDigamma][{z[5]}, {0, -1}], 
       {w[{(-t + t^2)^(-1)}, {z[4]*z[5]}], w[{0}, {s}], 
        w[{-(1 - t)^(-1)}, {z[4]}], w[{0}, {s}]}, s]/(64*s) + 
     J[\[CapitalDigamma][{z[5]}, {0, -1}], 
       {w[{(-t + t^2)^(-1)}, {z[4]*z[5]}], w[{-(1 - t)^(-1)}, {s}], 
        w[{-(1 - t)^(-1)}, {z[4]}], w[{0}, {s}]}, s]/(32*s) + 
     J[\[CapitalDigamma][{z[5]}, {0, -1}], 
       {w[{(-t + t^2)^(-1)}, {z[4]*z[5]}], w[{-(1 - t)^(-1)}, {z[4]}], 
        w[{0}, {s}], w[{0}, {s}]}, s]/(64*s) + 
     (3*J[\[CapitalDigamma][{z[5]}, {0, -1}], 
        {w[{(-t + t^2)^(-1)}, {z[4]*z[5]}], w[{-(1 - t)^(-1)}, {z[4]}], 
         w[{t^(-1)}, {z[2]}], w[{t^(-1)}, {z[2]}]}, s])/(64*s) + 
     J[\[CapitalDigamma][{z[5]}, {0, 0}], {w[{-(t - t^2)^(-1)}, {z[5]}], 
        w[{(1 - t)^(-1)}, {z[1]}], w[{(1 - t)^(-1)}, {z[1]}]}, s]/(32*s) + 
     J[\[CapitalDigamma][{z[5]}, {0, 0}], {w[{-(t - t^2)^(-1)}, {z[5]}], 
        w[{t^(-1)}, {z[2]}], w[{t^(-1)}, {z[2]}]}, s]/(32*s) + 
     J[\[CapitalDigamma][{z[5]}, {0, 0}], {w[{(-t + t^2)^(-1)}, {z[3]*z[5]}], 
        w[{(1 - t)^(-1)}, {z[1]*z[3]}], w[{(1 - t)^(-1)}, {z[1]}]}, s]/
      (32*s) + (J[\[CapitalDigamma][{z[5]}, {-1, 0}], 
        {w[{(-t + t^2)^(-1)}, {z[3]*z[5]}], w[{-t^(-1)}, {z[1]*z[3]}], 
         w[{(1 - t)^(-1)}, {z[1]}]}, s] - J[\[CapitalDigamma][{z[5]}, 
         {0, 0}], {w[{(-t + t^2)^(-1)}, {z[3]*z[5]}], 
         w[{-t^(-1)}, {z[1]*z[3]}], w[{(1 - t)^(-1)}, {z[1]}]}, s])/(32*s) + 
     J[\[CapitalDigamma][{z[5]}, {0, 0}], {w[{(-t + t^2)^(-1)}, {z[4]*z[5]}], 
        w[{t^(-1)}, {z[2]*z[4]}], w[{t^(-1)}, {z[2]}]}, s]/(32*s) - 
     J[\[CapitalDigamma][{z[5]}, {0, 0}], {w[{0}, {s}], 
        w[{-(t - t^2)^(-1)}, {z[5]}], w[{(1 - t)^(-1)}, {z[1]}], 
        w[{(1 - t)^(-1)}, {z[1]}]}, s]/(64*s) - 
     J[\[CapitalDigamma][{z[5]}, {0, 0}], {w[{0}, {s}], 
        w[{-(t - t^2)^(-1)}, {z[5]}], w[{t^(-1)}, {z[2]}], 
        w[{t^(-1)}, {z[2]}]}, s]/(64*s) - 
     J[\[CapitalDigamma][{z[5]}, {0, 0}], {w[{0}, {s}], 
        w[{(-t + t^2)^(-1)}, {z[3]*z[5]}], w[{(1 - t)^(-1)}, {z[1]*z[3]}], 
        w[{(1 - t)^(-1)}, {z[1]}]}, s]/(64*s) - 
     J[\[CapitalDigamma][{z[5]}, {0, 0}], {w[{0}, {s}], 
        w[{(-t + t^2)^(-1)}, {z[4]*z[5]}], w[{t^(-1)}, {z[2]*z[4]}], 
        w[{t^(-1)}, {z[2]}]}, s]/(64*s) - 
     J[\[CapitalDigamma][{z[5]}, {0, 0}], {w[{-(t - t^2)^(-1)}, {s}], 
        w[{-(t - t^2)^(-1)}, {z[5]}], w[{(1 - t)^(-1)}, {z[1]}], 
        w[{(1 - t)^(-1)}, {z[1]}]}, s]/(32*s) - 
     J[\[CapitalDigamma][{z[5]}, {0, 0}], {w[{-(t - t^2)^(-1)}, {s}], 
        w[{-(t - t^2)^(-1)}, {z[5]}], w[{t^(-1)}, {z[2]}], 
        w[{t^(-1)}, {z[2]}]}, s]/(32*s) - 
     J[\[CapitalDigamma][{z[5]}, {0, 0}], {w[{-(t - t^2)^(-1)}, {s}], 
        w[{(-t + t^2)^(-1)}, {z[3]*z[5]}], w[{(1 - t)^(-1)}, {z[1]*z[3]}], 
        w[{(1 - t)^(-1)}, {z[1]}]}, s]/(32*s) - 
     J[\[CapitalDigamma][{z[5]}, {0, 0}], {w[{-(t - t^2)^(-1)}, {s}], 
        w[{(-t + t^2)^(-1)}, {z[4]*z[5]}], w[{t^(-1)}, {z[2]*z[4]}], 
        w[{t^(-1)}, {z[2]}]}, s]/(32*s) + 
     (3*J[\[CapitalDigamma][{z[5]}, {0, 0}], {w[{-(t - t^2)^(-1)}, {z[5]}], 
         w[{0}, {s}], w[{(1 - t)^(-1)}, {z[1]}], w[{(1 - t)^(-1)}, {z[1]}]}, 
        s])/(64*s) + (3*J[\[CapitalDigamma][{z[5]}, {0, 0}], 
        {w[{-(t - t^2)^(-1)}, {z[5]}], w[{0}, {s}], w[{t^(-1)}, {z[2]}], 
         w[{t^(-1)}, {z[2]}]}, s])/(64*s) - 
     J[\[CapitalDigamma][{z[5]}, {0, 0}], {w[{-(t - t^2)^(-1)}, {z[5]}], 
        w[{(1 - t)^(-1)}, {z[1]}], w[{0}, {s}], w[{(1 - t)^(-1)}, {z[1]}]}, 
       s]/(64*s) - (3*J[\[CapitalDigamma][{z[5]}, {0, 0}], 
        {w[{-(t - t^2)^(-1)}, {z[5]}], w[{(1 - t)^(-1)}, {z[1]}], 
         w[{(1 - t)^(-1)}, {s}], w[{(1 - t)^(-1)}, {z[1]}]}, s])/(64*s) - 
     J[\[CapitalDigamma][{z[5]}, {0, 0}], {w[{-(t - t^2)^(-1)}, {z[5]}], 
        w[{t^(-1)}, {z[2]}], w[{0}, {s}], w[{t^(-1)}, {z[2]}]}, s]/(64*s) - 
     (3*J[\[CapitalDigamma][{z[5]}, {0, 0}], {w[{-(t - t^2)^(-1)}, {z[5]}], 
         w[{t^(-1)}, {z[2]}], w[{t^(-1)}, {s}], w[{t^(-1)}, {z[2]}]}, s])/
      (64*s) + (J[\[CapitalDigamma][{z[5]}, {-1, 0}], 
        {w[{(-t + t^2)^(-1)}, {s}], w[{-t^(-1)}, {z[3]*z[5]}], 
         w[{-t^(-1)}, {z[3]}], w[{0}, {s}]}, s] - 
       J[\[CapitalDigamma][{z[5]}, {0, 0}], {w[{(-t + t^2)^(-1)}, {s}], 
         w[{-t^(-1)}, {z[3]*z[5]}], w[{-t^(-1)}, {z[3]}], w[{0}, {s}]}, s])/
      (64*s) + J[\[CapitalDigamma][{z[5]}, {0, 0}], 
       {w[{(-t + t^2)^(-1)}, {s}], w[{-(t - t^2)^(-1)}, {z[5]}], 
        w[{(1 - t)^(-1)}, {z[1]}], w[{(1 - t)^(-1)}, {z[1]}]}, s]/(64*s) + 
     J[\[CapitalDigamma][{z[5]}, {0, 0}], {w[{(-t + t^2)^(-1)}, {s}], 
        w[{-(t - t^2)^(-1)}, {z[5]}], w[{t^(-1)}, {z[2]}], 
        w[{t^(-1)}, {z[2]}]}, s]/(64*s) + 
     J[\[CapitalDigamma][{z[5]}, {0, 0}], {w[{(-t + t^2)^(-1)}, {s}], 
        w[{(-t + t^2)^(-1)}, {z[3]*z[5]}], w[{(1 - t)^(-1)}, {z[1]*z[3]}], 
        w[{(1 - t)^(-1)}, {z[1]}]}, s]/(64*s) + 
     (J[\[CapitalDigamma][{z[5]}, {-1, 0}], {w[{(-t + t^2)^(-1)}, {s}], 
         w[{(-t + t^2)^(-1)}, {z[3]*z[5]}], w[{-t^(-1)}, {z[1]*z[3]}], 
         w[{(1 - t)^(-1)}, {z[1]}]}, s] - J[\[CapitalDigamma][{z[5]}, 
         {0, 0}], {w[{(-t + t^2)^(-1)}, {s}], w[{(-t + t^2)^(-1)}, 
          {z[3]*z[5]}], w[{-t^(-1)}, {z[1]*z[3]}], w[{(1 - t)^(-1)}, 
          {z[1]}]}, s])/(64*s) + J[\[CapitalDigamma][{z[5]}, {0, 0}], 
       {w[{(-t + t^2)^(-1)}, {s}], w[{(-t + t^2)^(-1)}, {z[4]*z[5]}], 
        w[{t^(-1)}, {z[2]*z[4]}], w[{t^(-1)}, {z[2]}]}, s]/(64*s) - 
     (3*J[\[CapitalDigamma][{z[5]}, {0, 0}], {w[{(-t + t^2)^(-1)}, {z[5]}], 
         w[{-(1 - t)^(-1)}, {z[4]}], w[{-(1 - t)^(-1)}, {z[4]}], 
         w[{0}, {s}]}, s])/(64*s) - 
     (3*J[\[CapitalDigamma][{z[5]}, {0, 0}], {w[{(-t + t^2)^(-1)}, {z[5]}], 
         w[{-t^(-1)}, {z[3]}], w[{-t^(-1)}, {z[3]}], w[{0}, {s}]}, s])/
      (64*s) - J[\[CapitalDigamma][{z[5]}, {0, 0}], 
       {w[{(-t + t^2)^(-1)}, {z[3]*z[5]}], w[{0}, {s}], 
        w[{(1 - t)^(-1)}, {z[1]*z[3]}], w[{(1 - t)^(-1)}, {z[1]}]}, s]/
      (64*s) - J[\[CapitalDigamma][{z[5]}, {0, 0}], 
       {w[{(-t + t^2)^(-1)}, {z[3]*z[5]}], w[{(1 - t)^(-1)}, {z[1]*z[3]}], 
        w[{0}, {s}], w[{(1 - t)^(-1)}, {z[1]}]}, s]/(64*s) - 
     (3*J[\[CapitalDigamma][{z[5]}, {0, 0}], 
        {w[{(-t + t^2)^(-1)}, {z[3]*z[5]}], w[{(1 - t)^(-1)}, {z[1]*z[3]}], 
         w[{(1 - t)^(-1)}, {s}], w[{(1 - t)^(-1)}, {z[1]}]}, s])/(64*s) - 
     J[\[CapitalDigamma][{z[5]}, {0, 0}], {w[{(-t + t^2)^(-1)}, {z[3]*z[5]}], 
        w[{-t^(-1)}, {s}], w[{(1 - t)^(-1)}, {z[1]*z[3]}], 
        w[{(1 - t)^(-1)}, {z[1]}]}, s]/(32*s) - 
     J[\[CapitalDigamma][{z[5]}, {0, 0}], {w[{(-t + t^2)^(-1)}, {z[4]*z[5]}], 
        w[{0}, {s}], w[{t^(-1)}, {z[2]*z[4]}], w[{t^(-1)}, {z[2]}]}, s]/
      (64*s) - J[\[CapitalDigamma][{z[5]}, {0, 0}], 
       {w[{(-t + t^2)^(-1)}, {z[4]*z[5]}], w[{-(1 - t)^(-1)}, {s}], 
        w[{t^(-1)}, {z[2]*z[4]}], w[{t^(-1)}, {z[2]}]}, s]/(32*s) - 
     J[\[CapitalDigamma][{z[5]}, {0, 0}], {w[{(-t + t^2)^(-1)}, {z[4]*z[5]}], 
        w[{t^(-1)}, {z[2]*z[4]}], w[{0}, {s}], w[{t^(-1)}, {z[2]}]}, s]/
      (64*s) - (3*J[\[CapitalDigamma][{z[5]}, {0, 0}], 
        {w[{(-t + t^2)^(-1)}, {z[4]*z[5]}], w[{t^(-1)}, {z[2]*z[4]}], 
         w[{t^(-1)}, {s}], w[{t^(-1)}, {z[2]}]}, s])/(64*s) - 
     J[\[CapitalDigamma][{z[5]}, {0, 1}], {w[{-t^(-1)}, {z[3]*z[5]}], 
        w[{(1 - t)^(-1)}, {z[1]*z[3]}], w[{(1 - t)^(-1)}, {z[1]}]}, s]/
      (32*s) + (3*J[\[CapitalDigamma][{z[5]}, {0, 1}], 
        {w[{-t^(-1)}, {z[3]*z[5]}], w[{(1 - t)^(-1)}, {z[1]*z[3]}], 
         w[{(1 - t)^(-1)}, {s}], w[{(1 - t)^(-1)}, {z[1]}]}, s])/(64*s) - 
     J[\[CapitalDigamma][{z[5]}, {0, 1}], {w[{(-t + t^2)^(-1)}, {s}], 
        w[{-t^(-1)}, {z[3]*z[5]}], w[{(1 - t)^(-1)}, {z[1]*z[3]}], 
        w[{(1 - t)^(-1)}, {z[1]}]}, s]/(64*s) + 
     (3*J[\[CapitalDigamma][{z[5]}, {0, 1}], {w[{(-t + t^2)^(-1)}, {z[5]}], 
         w[{-(1 - t)^(-1)}, {z[4]}], w[{t^(-1)}, {z[2]*z[4]}], 
         w[{t^(-1)}, {z[2]}]}, s])/(64*s) + 
     (3*J[\[CapitalDigamma][{z[5]}, {0, 1}], {w[{(-t + t^2)^(-1)}, {z[5]}], 
         w[{-t^(-1)}, {z[3]}], w[{-t^(-1)}, {z[1]*z[3]}], 
         w[{(1 - t)^(-1)}, {z[1]}]}, s])/(64*s) + 
     J[\[CapitalDigamma][{z[5]}, {1, -1}], 
       {w[{(-t + t^2)^(-1)}, {z[4]*z[5]}], w[{-(1 - t)^(-1)}, {z[2]*z[4]}], 
        w[{t^(-1)}, {z[2]}]}, s]/(32*s) - 
     J[\[CapitalDigamma][{z[5]}, {1, -1}], {w[{0}, {s}], 
        w[{-(1 - t)^(-1)}, {z[4]*z[5]}], w[{-(1 - t)^(-1)}, {z[4]}], 
        w[{0}, {s}]}, s]/(64*s) - J[\[CapitalDigamma][{z[5]}, {1, -1}], 
       {w[{0}, {s}], w[{(-t + t^2)^(-1)}, {z[4]*z[5]}], 
        w[{-(1 - t)^(-1)}, {z[2]*z[4]}], w[{t^(-1)}, {z[2]}]}, s]/(64*s) - 
     J[\[CapitalDigamma][{z[5]}, {1, -1}], {w[{-(1 - t)^(-1)}, {z[4]*z[5]}], 
        w[{0}, {s}], w[{-(1 - t)^(-1)}, {z[4]}], w[{0}, {s}]}, s]/(64*s) - 
     J[\[CapitalDigamma][{z[5]}, {1, -1}], {w[{-(1 - t)^(-1)}, {z[4]*z[5]}], 
        w[{-(1 - t)^(-1)}, {s}], w[{-(1 - t)^(-1)}, {z[4]}], w[{0}, {s}]}, s]/
      (32*s) - J[\[CapitalDigamma][{z[5]}, {1, -1}], 
       {w[{-(1 - t)^(-1)}, {z[4]*z[5]}], w[{-(1 - t)^(-1)}, {z[4]}], 
        w[{0}, {s}], w[{0}, {s}]}, s]/(64*s) - 
     (3*J[\[CapitalDigamma][{z[5]}, {1, -1}], 
        {w[{-(1 - t)^(-1)}, {z[4]*z[5]}], w[{-(1 - t)^(-1)}, {z[4]}], 
         w[{t^(-1)}, {z[2]}], w[{t^(-1)}, {z[2]}]}, s])/(64*s) - 
     J[\[CapitalDigamma][{z[5]}, {1, -1}], {w[{-(t - t^2)^(-1)}, {s}], 
        w[{-(1 - t)^(-1)}, {z[4]*z[5]}], w[{-(1 - t)^(-1)}, {z[4]}], 
        w[{0}, {s}]}, s]/(32*s) - J[\[CapitalDigamma][{z[5]}, {1, -1}], 
       {w[{-(t - t^2)^(-1)}, {s}], w[{(-t + t^2)^(-1)}, {z[4]*z[5]}], 
        w[{-(1 - t)^(-1)}, {z[2]*z[4]}], w[{t^(-1)}, {z[2]}]}, s]/(32*s) + 
     J[\[CapitalDigamma][{z[5]}, {1, -1}], {w[{(-t + t^2)^(-1)}, {s}], 
        w[{-(1 - t)^(-1)}, {z[4]*z[5]}], w[{-(1 - t)^(-1)}, {z[4]}], 
        w[{0}, {s}]}, s]/(64*s) + J[\[CapitalDigamma][{z[5]}, {1, -1}], 
       {w[{(-t + t^2)^(-1)}, {s}], w[{(-t + t^2)^(-1)}, {z[4]*z[5]}], 
        w[{-(1 - t)^(-1)}, {z[2]*z[4]}], w[{t^(-1)}, {z[2]}]}, s]/(64*s) - 
     J[\[CapitalDigamma][{z[5]}, {1, -1}], 
       {w[{(-t + t^2)^(-1)}, {z[4]*z[5]}], w[{0}, {s}], 
        w[{-(1 - t)^(-1)}, {z[2]*z[4]}], w[{t^(-1)}, {z[2]}]}, s]/(64*s) - 
     J[\[CapitalDigamma][{z[5]}, {1, -1}], 
       {w[{(-t + t^2)^(-1)}, {z[4]*z[5]}], w[{-(1 - t)^(-1)}, {s}], 
        w[{-(1 - t)^(-1)}, {z[2]*z[4]}], w[{t^(-1)}, {z[2]}]}, s]/(32*s) - 
     J[\[CapitalDigamma][{z[5]}, {1, -1}], 
       {w[{(-t + t^2)^(-1)}, {z[4]*z[5]}], w[{-(1 - t)^(-1)}, {z[2]*z[4]}], 
        w[{0}, {s}], w[{t^(-1)}, {z[2]}]}, s]/(64*s) - 
     (3*J[\[CapitalDigamma][{z[5]}, {1, -1}], 
        {w[{(-t + t^2)^(-1)}, {z[4]*z[5]}], w[{-(1 - t)^(-1)}, {z[2]*z[4]}], 
         w[{t^(-1)}, {s}], w[{t^(-1)}, {z[2]}]}, s])/(64*s) - 
     J[\[CapitalDigamma][{z[5]}, {1, 0}], {w[{-(1 - t)^(-1)}, {z[4]*z[5]}], 
        w[{t^(-1)}, {z[2]*z[4]}], w[{t^(-1)}, {z[2]}]}, s]/(32*s) + 
     J[\[CapitalDigamma][{z[5]}, {1, 0}], {w[{0}, {s}], 
        w[{-(1 - t)^(-1)}, {z[4]*z[5]}], w[{t^(-1)}, {z[2]*z[4]}], 
        w[{t^(-1)}, {z[2]}]}, s]/(64*s) + 
     (J[\[CapitalDigamma][{z[5]}, {0, 0}], {w[{0}, {s}], 
         w[{-t^(-1)}, {z[3]*z[5]}], w[{(1 - t)^(-1)}, {z[1]*z[3]}], 
         w[{(1 - t)^(-1)}, {z[1]}]}, s] - J[\[CapitalDigamma][{z[5]}, 
         {1, 0}], {w[{0}, {s}], w[{-t^(-1)}, {z[3]*z[5]}], 
         w[{(1 - t)^(-1)}, {z[1]*z[3]}], w[{(1 - t)^(-1)}, {z[1]}]}, s])/
      (64*s) + J[\[CapitalDigamma][{z[5]}, {1, 0}], 
       {w[{-(1 - t)^(-1)}, {z[4]*z[5]}], w[{0}, {s}], 
        w[{t^(-1)}, {z[2]*z[4]}], w[{t^(-1)}, {z[2]}]}, s]/(64*s) + 
     J[\[CapitalDigamma][{z[5]}, {1, 0}], {w[{-(1 - t)^(-1)}, {z[4]*z[5]}], 
        w[{-(1 - t)^(-1)}, {s}], w[{t^(-1)}, {z[2]*z[4]}], 
        w[{t^(-1)}, {z[2]}]}, s]/(32*s) + 
     J[\[CapitalDigamma][{z[5]}, {1, 0}], {w[{-(1 - t)^(-1)}, {z[4]*z[5]}], 
        w[{t^(-1)}, {z[2]*z[4]}], w[{0}, {s}], w[{t^(-1)}, {z[2]}]}, s]/
      (64*s) + (3*J[\[CapitalDigamma][{z[5]}, {1, 0}], 
        {w[{-(1 - t)^(-1)}, {z[4]*z[5]}], w[{t^(-1)}, {z[2]*z[4]}], 
         w[{t^(-1)}, {s}], w[{t^(-1)}, {z[2]}]}, s])/(64*s) + 
     (J[\[CapitalDigamma][{z[5]}, {0, 0}], {w[{-t^(-1)}, {z[3]*z[5]}], 
         w[{0}, {s}], w[{(1 - t)^(-1)}, {z[1]*z[3]}], w[{(1 - t)^(-1)}, 
          {z[1]}]}, s] - J[\[CapitalDigamma][{z[5]}, {1, 0}], 
        {w[{-t^(-1)}, {z[3]*z[5]}], w[{0}, {s}], w[{(1 - t)^(-1)}, 
          {z[1]*z[3]}], w[{(1 - t)^(-1)}, {z[1]}]}, s])/(64*s) + 
     (J[\[CapitalDigamma][{z[5]}, {0, 0}], {w[{-t^(-1)}, {z[3]*z[5]}], 
         w[{(1 - t)^(-1)}, {z[1]*z[3]}], w[{0}, {s}], w[{(1 - t)^(-1)}, 
          {z[1]}]}, s] - J[\[CapitalDigamma][{z[5]}, {1, 0}], 
        {w[{-t^(-1)}, {z[3]*z[5]}], w[{(1 - t)^(-1)}, {z[1]*z[3]}], 
         w[{0}, {s}], w[{(1 - t)^(-1)}, {z[1]}]}, s])/(64*s) + 
     (J[\[CapitalDigamma][{z[5]}, {0, 0}], {w[{-t^(-1)}, {z[3]*z[5]}], 
         w[{-t^(-1)}, {s}], w[{(1 - t)^(-1)}, {z[1]*z[3]}], 
         w[{(1 - t)^(-1)}, {z[1]}]}, s] - J[\[CapitalDigamma][{z[5]}, 
         {1, 0}], {w[{-t^(-1)}, {z[3]*z[5]}], w[{-t^(-1)}, {s}], 
         w[{(1 - t)^(-1)}, {z[1]*z[3]}], w[{(1 - t)^(-1)}, {z[1]}]}, s])/
      (32*s) + J[\[CapitalDigamma][{z[5]}, {1, 0}], 
       {w[{-(t - t^2)^(-1)}, {s}], w[{-(1 - t)^(-1)}, {z[4]*z[5]}], 
        w[{t^(-1)}, {z[2]*z[4]}], w[{t^(-1)}, {z[2]}]}, s]/(32*s) + 
     (J[\[CapitalDigamma][{z[5]}, {0, 0}], {w[{-(t - t^2)^(-1)}, {s}], 
         w[{-t^(-1)}, {z[3]*z[5]}], w[{(1 - t)^(-1)}, {z[1]*z[3]}], 
         w[{(1 - t)^(-1)}, {z[1]}]}, s] - J[\[CapitalDigamma][{z[5]}, 
         {1, 0}], {w[{-(t - t^2)^(-1)}, {s}], w[{-t^(-1)}, {z[3]*z[5]}], 
         w[{(1 - t)^(-1)}, {z[1]*z[3]}], w[{(1 - t)^(-1)}, {z[1]}]}, s])/
      (32*s) - J[\[CapitalDigamma][{z[5]}, {1, 0}], 
       {w[{(-t + t^2)^(-1)}, {s}], w[{-(1 - t)^(-1)}, {z[4]*z[5]}], 
        w[{t^(-1)}, {z[2]*z[4]}], w[{t^(-1)}, {z[2]}]}, s]/(64*s) + 
     (3*J[\[CapitalDigamma][{z[5]}, {1, 0}], {w[{(-t + t^2)^(-1)}, {z[5]}], 
         w[{-(1 - t)^(-1)}, {z[4]}], w[{-(1 - t)^(-1)}, {z[2]*z[4]}], 
         w[{t^(-1)}, {z[2]}]}, s])/(64*s) + 
     (3*J[\[CapitalDigamma][{z[5]}, {1, 0}], {w[{(-t + t^2)^(-1)}, {z[5]}], 
         w[{-t^(-1)}, {z[3]}], w[{(1 - t)^(-1)}, {z[1]*z[3]}], 
         w[{(1 - t)^(-1)}, {z[1]}]}, s])/(64*s) - 
     J[\[CapitalDigamma][{z[5]}, {2, -1}], {w[{-(1 - t)^(-1)}, {z[4]*z[5]}], 
        w[{-(1 - t)^(-1)}, {z[2]*z[4]}], w[{t^(-1)}, {z[2]}]}, s]/(32*s) + 
     J[\[CapitalDigamma][{z[5]}, {2, -1}], {w[{0}, {s}], 
        w[{-(1 - t)^(-1)}, {z[4]*z[5]}], w[{-(1 - t)^(-1)}, {z[2]*z[4]}], 
        w[{t^(-1)}, {z[2]}]}, s]/(64*s) + 
     J[\[CapitalDigamma][{z[5]}, {2, -1}], {w[{-(1 - t)^(-1)}, {z[4]*z[5]}], 
        w[{0}, {s}], w[{-(1 - t)^(-1)}, {z[2]*z[4]}], w[{t^(-1)}, {z[2]}]}, 
       s]/(64*s) + J[\[CapitalDigamma][{z[5]}, {2, -1}], 
       {w[{-(1 - t)^(-1)}, {z[4]*z[5]}], w[{-(1 - t)^(-1)}, {s}], 
        w[{-(1 - t)^(-1)}, {z[2]*z[4]}], w[{t^(-1)}, {z[2]}]}, s]/(32*s) + 
     J[\[CapitalDigamma][{z[5]}, {2, -1}], {w[{-(1 - t)^(-1)}, {z[4]*z[5]}], 
        w[{-(1 - t)^(-1)}, {z[2]*z[4]}], w[{0}, {s}], w[{t^(-1)}, {z[2]}]}, 
       s]/(64*s) + (3*J[\[CapitalDigamma][{z[5]}, {2, -1}], 
        {w[{-(1 - t)^(-1)}, {z[4]*z[5]}], w[{-(1 - t)^(-1)}, {z[2]*z[4]}], 
         w[{t^(-1)}, {s}], w[{t^(-1)}, {z[2]}]}, s])/(64*s) + 
     J[\[CapitalDigamma][{z[5]}, {2, -1}], {w[{-(t - t^2)^(-1)}, {s}], 
        w[{-(1 - t)^(-1)}, {z[4]*z[5]}], w[{-(1 - t)^(-1)}, {z[2]*z[4]}], 
        w[{t^(-1)}, {z[2]}]}, s]/(32*s) - 
     J[\[CapitalDigamma][{z[5]}, {2, -1}], {w[{(-t + t^2)^(-1)}, {s}], 
        w[{-(1 - t)^(-1)}, {z[4]*z[5]}], w[{-(1 - t)^(-1)}, {z[2]*z[4]}], 
        w[{t^(-1)}, {z[2]}]}, s]/(64*s) - 
     (J[\[CapitalDigamma][{z[5]}, {0, -1}], {w[{(-t + t^2)^(-1)}, 
          {z[4]*z[5]}], w[{-(1 - t)^(-1)}, {z[4]}], w[{0}, {s}]}, s]*
       (2 + I*Pi - Log[4]))/(64*s) - 
     (I/32)*J[\[CapitalKappa][{z[4]}, {0, 1}], {w[{0}, {s}], 
        w[{-(1 - t)^(-1)}, {z[4]}]}, s]*(Pi + I*Log[4]) - 
     (I/16)*J[\[CapitalKappa][{z[4]}, {0, 1}], {w[{-(1 - t)^(-1)}, {s}], 
        w[{-(1 - t)^(-1)}, {z[4]}]}, s]*(Pi + I*Log[4]) - 
     (I/32)*J[\[CapitalKappa][{z[4]}, {0, 1}], {w[{-(1 - t)^(-1)}, {z[4]}], 
        w[{0}, {s}]}, s]*(Pi + I*Log[4]) + 
     (I/32)*J[\[CapitalOmega][{z[3]}, {1, 0}], {w[{0}, {s}], 
        w[{-t^(-1)}, {z[3]}]}, s]*(Pi + I*Log[4]) + 
     (I/16)*J[\[CapitalOmega][{z[3]}, {1, 0}], {w[{-t^(-1)}, {s}], 
        w[{-t^(-1)}, {z[3]}]}, s]*(Pi + I*Log[4]) + 
     (I/32)*J[\[CapitalOmega][{z[3]}, {1, 0}], {w[{-t^(-1)}, {z[3]}], 
        w[{0}, {s}]}, s]*(Pi + I*Log[4]) + 
     ((I/64)*J[\[CapitalDigamma][{z[5]}, {-1, 0}], 
        {w[{(-t + t^2)^(-1)}, {s}], w[{(-t + t^2)^(-1)}, {z[3]*z[5]}], 
         w[{-t^(-1)}, {z[3]}]}, s]*(Pi + I*Log[4]))/s - 
     ((I/64)*J[\[CapitalDigamma][{z[5]}, {-1, 1}], 
        {w[{(-t + t^2)^(-1)}, {s}], w[{-t^(-1)}, {z[3]*z[5]}], 
         w[{-t^(-1)}, {z[3]}]}, s]*(Pi + I*Log[4]))/s - 
     ((I/64)*J[\[CapitalDigamma][{z[5]}, {0, -1}], {w[{0}, {s}], 
         w[{(-t + t^2)^(-1)}, {z[4]*z[5]}], w[{-(1 - t)^(-1)}, {z[4]}]}, s]*
       (Pi + I*Log[4]))/s - ((I/32)*J[\[CapitalDigamma][{z[5]}, {0, -1}], 
        {w[{-(t - t^2)^(-1)}, {s}], w[{(-t + t^2)^(-1)}, {z[4]*z[5]}], 
         w[{-(1 - t)^(-1)}, {z[4]}]}, s]*(Pi + I*Log[4]))/s - 
     ((I/64)*J[\[CapitalDigamma][{z[5]}, {0, -1}], 
        {w[{(-t + t^2)^(-1)}, {z[4]*z[5]}], w[{0}, {s}], 
         w[{-(1 - t)^(-1)}, {z[4]}]}, s]*(Pi + I*Log[4]))/s - 
     ((I/32)*J[\[CapitalDigamma][{z[5]}, {0, -1}], 
        {w[{(-t + t^2)^(-1)}, {z[4]*z[5]}], w[{-(1 - t)^(-1)}, {s}], 
         w[{-(1 - t)^(-1)}, {z[4]}]}, s]*(Pi + I*Log[4]))/s + 
     (((3*I)/64)*J[\[CapitalDigamma][{z[5]}, {0, 0}], 
        {w[{(-t + t^2)^(-1)}, {z[5]}], w[{-(1 - t)^(-1)}, {z[4]}], 
         w[{-(1 - t)^(-1)}, {z[4]}]}, s]*(Pi + I*Log[4]))/s + 
     (((3*I)/64)*J[\[CapitalDigamma][{z[5]}, {0, 0}], 
        {w[{(-t + t^2)^(-1)}, {z[5]}], w[{-t^(-1)}, {z[3]}], 
         w[{-t^(-1)}, {z[3]}]}, s]*(Pi + I*Log[4]))/s - 
     ((I/64)*J[\[CapitalDigamma][{z[5]}, {1, -1}], 
        {w[{(-t + t^2)^(-1)}, {s}], w[{-(1 - t)^(-1)}, {z[4]*z[5]}], 
         w[{-(1 - t)^(-1)}, {z[4]}]}, s]*(Pi + I*Log[4]))/s + 
     (J[\[CapitalDigamma][{z[5]}, {-1, 0}], {w[{(-t + t^2)^(-1)}, 
          {z[3]*z[5]}], w[{-t^(-1)}, {z[3]}], w[{0}, {s}]}, s]*
       (-2 - I*Pi + Log[4]))/(64*s) - 
     (J[\[CapitalDigamma][{z[5]}, {-1, 1}], {w[{-t^(-1)}, {z[3]*z[5]}], 
         w[{-t^(-1)}, {z[3]}], w[{0}, {s}]}, s]*(-2 - I*Pi + Log[4]))/
      (64*s) - (J[\[CapitalDigamma][{z[5]}, {1, -1}], 
        {w[{-(1 - t)^(-1)}, {z[4]*z[5]}], w[{-(1 - t)^(-1)}, {z[4]}], 
         w[{0}, {s}]}, s]*(-2 - I*Pi + Log[4]))/(64*s) + 
     (J[\[CapitalDigamma][{z[5]}, {-1, 0}], {w[{0}, {s}], 
         w[{(-t + t^2)^(-1)}, {z[3]*z[5]}], w[{-t^(-1)}, {z[3]}]}, s]*
       ((-I)*Pi + Log[4]))/(64*s) + 
     (J[\[CapitalDigamma][{z[5]}, {-1, 0}], {w[{-(t - t^2)^(-1)}, {s}], 
         w[{(-t + t^2)^(-1)}, {z[3]*z[5]}], w[{-t^(-1)}, {z[3]}]}, s]*
       ((-I)*Pi + Log[4]))/(32*s) + 
     (J[\[CapitalDigamma][{z[5]}, {-1, 0}], {w[{(-t + t^2)^(-1)}, 
          {z[3]*z[5]}], w[{0}, {s}], w[{-t^(-1)}, {z[3]}]}, s]*
       ((-I)*Pi + Log[4]))/(64*s) + 
     (J[\[CapitalDigamma][{z[5]}, {-1, 0}], {w[{(-t + t^2)^(-1)}, 
          {z[3]*z[5]}], w[{-t^(-1)}, {s}], w[{-t^(-1)}, {z[3]}]}, s]*
       ((-I)*Pi + Log[4]))/(32*s) - 
     (J[\[CapitalDigamma][{z[5]}, {-1, 1}], {w[{0}, {s}], 
         w[{-t^(-1)}, {z[3]*z[5]}], w[{-t^(-1)}, {z[3]}]}, s]*
       ((-I)*Pi + Log[4]))/(64*s) - 
     (J[\[CapitalDigamma][{z[5]}, {-1, 1}], {w[{-t^(-1)}, {z[3]*z[5]}], 
         w[{0}, {s}], w[{-t^(-1)}, {z[3]}]}, s]*((-I)*Pi + Log[4]))/(64*s) - 
     (J[\[CapitalDigamma][{z[5]}, {-1, 1}], {w[{-t^(-1)}, {z[3]*z[5]}], 
         w[{-t^(-1)}, {s}], w[{-t^(-1)}, {z[3]}]}, s]*((-I)*Pi + Log[4]))/
      (32*s) - (J[\[CapitalDigamma][{z[5]}, {-1, 1}], 
        {w[{-(t - t^2)^(-1)}, {s}], w[{-t^(-1)}, {z[3]*z[5]}], 
         w[{-t^(-1)}, {z[3]}]}, s]*((-I)*Pi + Log[4]))/(32*s) - 
     (J[\[CapitalDigamma][{z[5]}, {0, -1}], {w[{(-t + t^2)^(-1)}, {s}], 
         w[{(-t + t^2)^(-1)}, {z[4]*z[5]}], w[{-(1 - t)^(-1)}, {z[4]}]}, s]*
       ((-I)*Pi + Log[4]))/(64*s) - 
     (J[\[CapitalDigamma][{z[5]}, {1, -1}], {w[{0}, {s}], 
         w[{-(1 - t)^(-1)}, {z[4]*z[5]}], w[{-(1 - t)^(-1)}, {z[4]}]}, s]*
       ((-I)*Pi + Log[4]))/(64*s) - 
     (J[\[CapitalDigamma][{z[5]}, {1, -1}], {w[{-(1 - t)^(-1)}, {z[4]*z[5]}], 
         w[{0}, {s}], w[{-(1 - t)^(-1)}, {z[4]}]}, s]*((-I)*Pi + Log[4]))/
      (64*s) - (J[\[CapitalDigamma][{z[5]}, {1, -1}], 
        {w[{-(1 - t)^(-1)}, {z[4]*z[5]}], w[{-(1 - t)^(-1)}, {s}], 
         w[{-(1 - t)^(-1)}, {z[4]}]}, s]*((-I)*Pi + Log[4]))/(32*s) - 
     (J[\[CapitalDigamma][{z[5]}, {1, -1}], {w[{-(t - t^2)^(-1)}, {s}], 
         w[{-(1 - t)^(-1)}, {z[4]*z[5]}], w[{-(1 - t)^(-1)}, {z[4]}]}, s]*
       ((-I)*Pi + Log[4]))/(32*s) - 
     (J[\[CapitalDigamma][{z[5]}, {-1, 0}], {w[{(-t + t^2)^(-1)}, 
          {z[3]*z[5]}], w[{-t^(-1)}, {z[3]}]}, s]*
       (4*Pi^2 + 12*(-Log[2]^2 + Log[4]) + (3*I)*Pi*(-4 + Log[16])))/
      (384*s) + (J[\[CapitalDigamma][{z[5]}, {-1, 1}], 
        {w[{-t^(-1)}, {z[3]*z[5]}], w[{-t^(-1)}, {z[3]}]}, s]*
       (4*Pi^2 + 12*(-Log[2]^2 + Log[4]) + (3*I)*Pi*(-4 + Log[16])))/
      (384*s) - (J[\[CapitalDigamma][{z[5]}, {0, -1}], 
        {w[{(-t + t^2)^(-1)}, {z[4]*z[5]}], w[{-(1 - t)^(-1)}, {z[4]}]}, s]*
       (4*Pi^2 + 12*(-Log[2]^2 + Log[4]) + (3*I)*Pi*(-4 + Log[16])))/
      (384*s) + (J[\[CapitalDigamma][{z[5]}, {1, -1}], 
        {w[{-(1 - t)^(-1)}, {z[4]*z[5]}], w[{-(1 - t)^(-1)}, {z[4]}]}, s]*
       (4*Pi^2 + 12*(-Log[2]^2 + Log[4]) + (3*I)*Pi*(-4 + Log[16])))/
      (384*s) - (J[\[CapitalKappa][{z[4]}, {0, 1}], 
        {w[{-(1 - t)^(-1)}, {z[4]}]}, s]*(4*Pi^2 - 12*Log[2]^2 + 
        (3*I)*Pi*Log[16]))/192 + (J[\[CapitalOmega][{z[3]}, {1, 0}], 
        {w[{-t^(-1)}, {z[3]}]}, s]*(4*Pi^2 - 12*Log[2]^2 + (3*I)*Pi*Log[16]))/
      192 + (J[\[CapitalNu][{0, 0}], {w[{-(1 - t)^(-1)}, {z[4]}], 
         w[{-(1 - t)^(-1)}, {z[4]}]}, s]*((-6*I)*Pi + Log[4096]))/(64*s) + 
     (J[\[CapitalNu][{0, 0}], {w[{-t^(-1)}, {z[3]}], w[{-t^(-1)}, {z[3]}]}, 
        s]*((-6*I)*Pi + Log[4096]))/(64*s))}
